<?xml version="1.0" encoding="utf-8"?>
<!-- Generator: Adobe Illustrator 22.0.1, SVG Export Plug-In . SVG Version: 6.00 Build 0)  -->
<svg version="1.1" id="Layer_1" xmlns="http://www.w3.org/2000/svg" xmlns:xlink="http://www.w3.org/1999/xlink" x="0px" y="0px"
	 viewBox="0 0 113.3 365.9" style="enable-background:new 0 0 113.3 365.9;" xml:space="preserve">
<style type="text/css">
	.st0{fill:#007B89;}
	.st1{fill:#C7531F;}
	.st2{fill:#FFFFFF;}
	.st3{fill:#005980;}
	.st4{fill:#A3192D;}
	.st5{fill:#E5B611;}
	.st6{fill:#5B4833;}
	.st7{fill:#40311F;}
	.st8{fill:#007C88;}
	.st9{fill:#1CAA97;}
	.st10{fill:#026386;}
	.st11{fill:none;stroke:#026386;stroke-width:0.383;stroke-linecap:round;stroke-linejoin:round;stroke-miterlimit:10;}
	
		.st12{fill:none;stroke:#026386;stroke-width:0.191;stroke-linecap:round;stroke-linejoin:round;stroke-miterlimit:10;stroke-dasharray:1.239,1.739;}
	
		.st13{fill:none;stroke:#026386;stroke-width:0.191;stroke-linecap:round;stroke-linejoin:round;stroke-miterlimit:10;stroke-dasharray:1.242,1.742;}
	.st14{fill:#539436;}
	.st15{fill:#A8AD2C;}
	.st16{fill:#DA811F;}
</style>
<g>
	<path class="st0" d="M38.3,11.9c-0.1-0.9-0.7-1.3-1.6-1.3c-0.7,0-1.4,0.3-1.4,1.1c0,0.8,1,0.9,2.1,1.1c1,0.2,2.1,0.6,2.1,1.9
		c0,1.4-1.3,1.9-2.5,1.9c-1.4,0-2.7-0.7-2.7-2.3h0.8c0,1.1,0.9,1.5,1.9,1.5c0.8,0,1.6-0.2,1.6-1.2c0-0.9-1-1-2.1-1.3
		c-1-0.2-2.1-0.5-2.1-1.7c0-1.3,1.2-1.9,2.3-1.9c1.3,0,2.3,0.6,2.4,2H38.3z"/>
	<path class="st0" d="M44.2,16.5h-0.7v-0.7h0c-0.3,0.6-0.8,0.8-1.5,0.8c-1.2,0-1.6-0.7-1.6-1.7v-3.1h0.8V15c0,0.6,0.4,0.9,0.9,0.9
		c0.9,0,1.4-0.6,1.4-1.5v-2.6h0.8V16.5z"/>
	<path class="st0" d="M49.3,16.1c0,1.5-0.7,2.3-2.2,2.3c-0.9,0-1.9-0.4-1.9-1.4H46c0,0.6,0.7,0.8,1.2,0.8c1,0,1.4-0.7,1.4-1.8v-0.3
		h0c-0.3,0.6-0.9,0.8-1.4,0.8c-1.4,0-2.1-1.1-2.1-2.4c0-1.1,0.5-2.5,2.2-2.5c0.6,0,1.1,0.3,1.4,0.8h0v-0.7h0.7V16.1z M48.6,14.1
		c0-0.8-0.4-1.7-1.3-1.7c-1,0-1.4,0.8-1.4,1.7c0,0.8,0.3,1.8,1.3,1.8S48.6,14.9,48.6,14.1z"/>
	<path class="st0" d="M54.6,16.5c-0.1,0.1-0.3,0.1-0.5,0.1c-0.4,0-0.6-0.2-0.6-0.7c-0.4,0.5-1,0.7-1.6,0.7c-0.8,0-1.5-0.4-1.5-1.3
		c0-1.1,0.8-1.3,1.6-1.4c0.8-0.2,1.6-0.1,1.6-0.7c0-0.7-0.5-0.8-1-0.8c-0.6,0-1.1,0.2-1.2,0.9h-0.8c0-1.2,0.9-1.6,2-1.6
		c0.8,0,1.7,0.2,1.7,1.3v2.4c0,0.4,0,0.5,0.2,0.5c0.1,0,0.1,0,0.2,0V16.5z M53.4,14.1c-0.3,0.2-0.9,0.2-1.4,0.3
		c-0.5,0.1-0.9,0.3-0.9,0.8c0,0.5,0.4,0.7,0.9,0.7c1,0,1.4-0.6,1.4-1.1V14.1z"/>
	<path class="st0" d="M55.3,11.8H56v1h0c0.4-0.7,0.9-1.1,1.7-1.1v0.8c-1.2,0-1.7,0.7-1.7,1.9v2.1h-0.8V11.8z"/>
</g>
<g>
	<path class="st0" d="M38,24.7c-0.4,0.6-1.1,0.9-1.8,0.9c-1.7,0-2-1.2-2-1.8c0-1,0.7-1.5,1.5-1.9C35.4,21.4,35,21,35,20.4
		c0-0.7,0.5-1.3,1.4-1.3c0.8,0,1.6,0.4,1.6,1.3c0,0.8-0.6,1.3-1.2,1.7l1.2,1.4c0.1-0.3,0.2-0.7,0.2-1h0.7c-0.1,0.8-0.2,1-0.4,1.6
		l1.3,1.4h-1L38,24.7z M36.1,22.4c-0.6,0.3-1.1,0.7-1.1,1.4c0,0.6,0.6,1.1,1.2,1.1c0.6,0,1.1-0.3,1.4-0.8L36.1,22.4z M37.2,20.4
		c0-0.4-0.3-0.7-0.7-0.7c-0.4,0-0.7,0.2-0.7,0.7c0,0.4,0.3,0.8,0.6,1.1C36.8,21.3,37.2,20.9,37.2,20.4z"/>
	<path class="st0" d="M42.8,19h4.4v0.7h-3.6v2H47v0.7h-3.3v2.2h3.6v0.7h-4.5V19z"/>
	<path class="st0" d="M49.2,20.8h0.9v0.7h-0.9v2.9c0,0.4,0.1,0.4,0.6,0.4h0.4v0.7h-0.6c-0.8,0-1.1-0.2-1.1-1v-3h-0.8v-0.7h0.8v-1.4
		h0.8V20.8z"/>
	<path class="st0" d="M51,19h0.8v2.5h0c0.3-0.6,0.9-0.8,1.5-0.8c1.2,0,1.6,0.7,1.6,1.7v3.1h-0.8v-3.2c0-0.6-0.4-0.9-0.9-0.9
		c-0.9,0-1.4,0.6-1.4,1.5v2.6H51V19z"/>
	<path class="st0" d="M60.1,25.5c-0.1,0.1-0.3,0.1-0.5,0.1c-0.4,0-0.6-0.2-0.6-0.7c-0.4,0.5-1,0.7-1.6,0.7c-0.8,0-1.5-0.4-1.5-1.3
		c0-1.1,0.8-1.3,1.6-1.4c0.8-0.2,1.6-0.1,1.6-0.7c0-0.7-0.5-0.8-1-0.8c-0.6,0-1.1,0.2-1.2,0.9h-0.8c0-1.2,0.9-1.6,2-1.6
		c0.8,0,1.7,0.2,1.7,1.3v2.4c0,0.4,0,0.5,0.2,0.5c0.1,0,0.1,0,0.2,0V25.5z M58.9,23.1c-0.3,0.2-0.9,0.2-1.4,0.3
		c-0.5,0.1-0.9,0.3-0.9,0.8c0,0.5,0.4,0.7,0.9,0.7c1,0,1.4-0.6,1.4-1.1V23.1z"/>
	<path class="st0" d="M60.8,20.8h0.7v0.7h0c0.3-0.6,0.8-0.8,1.5-0.8c1.2,0,1.6,0.7,1.6,1.7v3.1h-0.8v-3.2c0-0.6-0.4-0.9-0.9-0.9
		c-0.9,0-1.4,0.6-1.4,1.5v2.6h-0.8V20.8z"/>
	<path class="st0" d="M67.8,20.7c1.5,0,2.3,1.1,2.3,2.4c0,1.4-0.8,2.4-2.3,2.4c-1.5,0-2.3-1.1-2.3-2.4
		C65.6,21.8,66.4,20.7,67.8,20.7z M67.8,24.9c0.8,0,1.4-0.6,1.4-1.8c0-1.1-0.6-1.8-1.4-1.8c-0.8,0-1.4,0.6-1.4,1.8
		C66.4,24.3,67,24.9,67.8,24.9z"/>
	<path class="st0" d="M71.1,19h0.8v6.4h-0.8V19z"/>
</g>
<g>
	<path class="st0" d="M38.3,38.9c-0.1-0.9-0.7-1.3-1.6-1.3c-0.7,0-1.4,0.3-1.4,1.1c0,0.8,1,0.9,2.1,1.1c1,0.2,2.1,0.6,2.1,1.9
		c0,1.4-1.3,1.9-2.5,1.9c-1.4,0-2.7-0.7-2.7-2.3h0.8c0,1.1,0.9,1.5,1.9,1.5c0.8,0,1.6-0.2,1.6-1.2c0-0.9-1-1-2.1-1.3
		c-1-0.2-2.1-0.5-2.1-1.7c0-1.3,1.2-1.9,2.3-1.9c1.3,0,2.3,0.6,2.4,2H38.3z"/>
	<path class="st0" d="M41.4,38.8h0.9v0.7h-0.9v2.9c0,0.4,0.1,0.4,0.6,0.4h0.4v0.7h-0.6c-0.8,0-1.1-0.2-1.1-1v-3h-0.8v-0.7h0.8v-1.4
		h0.8V38.8z"/>
	<path class="st0" d="M47.3,43.5c-0.1,0.1-0.3,0.1-0.5,0.1c-0.4,0-0.6-0.2-0.6-0.7c-0.4,0.5-1,0.7-1.6,0.7c-0.8,0-1.5-0.4-1.5-1.3
		c0-1.1,0.8-1.3,1.6-1.4c0.8-0.2,1.6-0.1,1.6-0.7c0-0.7-0.5-0.8-1-0.8c-0.6,0-1.1,0.2-1.2,0.9h-0.8c0-1.2,0.9-1.6,2-1.6
		c0.8,0,1.7,0.2,1.7,1.3v2.4c0,0.4,0,0.5,0.2,0.5c0.1,0,0.1,0,0.2,0V43.5z M46,41.1c-0.3,0.2-0.9,0.2-1.4,0.3
		c-0.5,0.1-0.9,0.3-0.9,0.8c0,0.5,0.4,0.7,0.9,0.7c1,0,1.4-0.6,1.4-1.1V41.1z"/>
	<path class="st0" d="M48,38.8h0.7v1h0c0.4-0.7,0.9-1.1,1.7-1.1v0.8c-1.2,0-1.7,0.7-1.7,1.9v2.1H48V38.8z"/>
	<path class="st0" d="M54,40.3c-0.1-0.6-0.5-0.9-1.2-0.9c-1.1,0-1.4,0.9-1.4,1.8c0,0.9,0.4,1.7,1.4,1.7c0.7,0,1.2-0.4,1.3-1.1h0.8
		c-0.2,1.1-0.9,1.8-2.1,1.8c-1.4,0-2.2-1-2.2-2.4c0-1.4,0.7-2.5,2.2-2.5c1.1,0,1.9,0.5,2,1.6H54z"/>
	<path class="st0" d="M55.7,37h0.8v2.5h0c0.3-0.6,0.9-0.8,1.5-0.8c1.2,0,1.6,0.7,1.6,1.7v3.1h-0.8v-3.2c0-0.6-0.4-0.9-0.9-0.9
		c-0.9,0-1.4,0.6-1.4,1.5v2.6h-0.8V37z"/>
	<path class="st0" d="M64.6,42c-0.2,1-0.9,1.6-2,1.6c-1.5,0-2.2-1-2.2-2.4c0-1.4,0.9-2.4,2.2-2.4c1.6,0,2.2,1.5,2.1,2.7h-3.5
		c0,0.8,0.4,1.5,1.4,1.5c0.6,0,1.1-0.3,1.2-0.9H64.6z M63.9,40.7c0-0.7-0.6-1.3-1.3-1.3c-0.8,0-1.3,0.6-1.3,1.3H63.9z"/>
	<path class="st0" d="M66,42c0,0.7,0.6,0.9,1.3,0.9c0.5,0,1.1-0.1,1.1-0.7c0-0.6-0.8-0.7-1.5-0.9c-0.8-0.2-1.5-0.4-1.5-1.3
		c0-0.9,0.9-1.3,1.7-1.3c1,0,1.8,0.3,1.9,1.5h-0.8c-0.1-0.6-0.6-0.8-1.1-0.8c-0.5,0-1,0.1-1,0.6c0,0.5,0.8,0.6,1.5,0.8
		c0.8,0.2,1.5,0.4,1.5,1.3c0,1.1-1,1.5-2,1.5c-1,0-1.9-0.4-2-1.6H66z"/>
</g>
<g>
	<path class="st0" d="M38,51.7c-0.4,0.6-1.1,0.9-1.8,0.9c-1.7,0-2-1.2-2-1.8c0-1,0.7-1.5,1.5-1.9C35.4,48.4,35,48,35,47.4
		c0-0.7,0.5-1.3,1.4-1.3c0.8,0,1.6,0.4,1.6,1.3c0,0.8-0.6,1.3-1.2,1.7l1.2,1.4c0.1-0.3,0.2-0.7,0.2-1h0.7c-0.1,0.8-0.2,1-0.4,1.6
		l1.3,1.4h-1L38,51.7z M36.1,49.4c-0.6,0.3-1.1,0.7-1.1,1.4c0,0.6,0.6,1.1,1.2,1.1c0.6,0,1.1-0.3,1.4-0.8L36.1,49.4z M37.2,47.4
		c0-0.4-0.3-0.7-0.7-0.7c-0.4,0-0.7,0.2-0.7,0.7c0,0.4,0.3,0.8,0.6,1.1C36.8,48.3,37.2,47.9,37.2,47.4z"/>
	<path class="st0" d="M46.5,47.9c-0.1-0.9-0.7-1.3-1.6-1.3c-0.7,0-1.4,0.3-1.4,1.1c0,0.8,1,0.9,2.1,1.1c1,0.2,2.1,0.6,2.1,1.9
		c0,1.4-1.3,1.9-2.5,1.9c-1.4,0-2.7-0.7-2.7-2.3h0.8c0,1.1,0.9,1.5,1.9,1.5c0.8,0,1.6-0.2,1.6-1.2c0-0.9-1-1-2.1-1.3
		c-1-0.2-2.1-0.5-2.1-1.7c0-1.3,1.2-1.9,2.3-1.9c1.3,0,2.3,0.6,2.4,2H46.5z"/>
	<path class="st0" d="M53.1,52.5h-0.8l-0.9-3.7h0l-0.9,3.7h-0.8l-1.5-4.7h0.8l1.1,3.8h0l0.9-3.8h0.8l1,3.8h0l1-3.8h0.8L53.1,52.5z"
		/>
	<path class="st0" d="M59.3,51c-0.2,1-0.9,1.6-2,1.6c-1.5,0-2.2-1-2.2-2.4c0-1.4,0.9-2.4,2.2-2.4c1.6,0,2.2,1.5,2.1,2.7h-3.5
		c0,0.8,0.4,1.5,1.4,1.5c0.6,0,1.1-0.3,1.2-0.9H59.3z M58.6,49.7c0-0.7-0.6-1.3-1.3-1.3c-0.8,0-1.3,0.6-1.3,1.3H58.6z"/>
	<path class="st0" d="M64.1,51c-0.2,1-0.9,1.6-2,1.6c-1.5,0-2.2-1-2.2-2.4c0-1.4,0.9-2.4,2.2-2.4c1.6,0,2.2,1.5,2.1,2.7h-3.5
		c0,0.8,0.4,1.5,1.4,1.5c0.6,0,1.1-0.3,1.2-0.9H64.1z M63.4,49.7c0-0.7-0.6-1.3-1.3-1.3c-0.8,0-1.3,0.6-1.3,1.3H63.4z"/>
	<path class="st0" d="M66,47.8H67v0.7H66v2.9c0,0.4,0.1,0.4,0.6,0.4H67v0.7h-0.6c-0.8,0-1.1-0.2-1.1-1v-3h-0.8v-0.7h0.8v-1.4H66
		V47.8z"/>
	<path class="st0" d="M71.8,51c-0.2,1-0.9,1.6-2,1.6c-1.5,0-2.2-1-2.2-2.4c0-1.4,0.9-2.4,2.2-2.4c1.6,0,2.2,1.5,2.1,2.7h-3.5
		c0,0.8,0.4,1.5,1.4,1.5c0.6,0,1.1-0.3,1.2-0.9H71.8z M71.1,49.7c0-0.7-0.6-1.3-1.3-1.3c-0.8,0-1.3,0.6-1.3,1.3H71.1z"/>
	<path class="st0" d="M72.7,47.8h0.7v0.7h0c0.3-0.6,0.8-0.8,1.5-0.8c1.2,0,1.6,0.7,1.6,1.7v3.1h-0.8v-3.2c0-0.6-0.4-0.9-0.9-0.9
		c-0.9,0-1.4,0.6-1.4,1.5v2.6h-0.8V47.8z"/>
	<path class="st0" d="M81.6,51c-0.2,1-0.9,1.6-2,1.6c-1.5,0-2.2-1-2.2-2.4c0-1.4,0.9-2.4,2.2-2.4c1.6,0,2.2,1.5,2.1,2.7h-3.5
		c0,0.8,0.4,1.5,1.4,1.5c0.6,0,1.1-0.3,1.2-0.9H81.6z M80.9,49.7c0-0.7-0.6-1.3-1.3-1.3c-0.8,0-1.3,0.6-1.3,1.3H80.9z"/>
	<path class="st0" d="M82.5,47.8h0.7v1h0c0.4-0.7,0.9-1.1,1.7-1.1v0.8c-1.2,0-1.7,0.7-1.7,1.9v2.1h-0.8V47.8z"/>
	<path class="st0" d="M86,51c0,0.7,0.6,0.9,1.3,0.9c0.5,0,1.1-0.1,1.1-0.7c0-0.6-0.8-0.7-1.5-0.9c-0.8-0.2-1.5-0.4-1.5-1.3
		c0-0.9,0.9-1.3,1.7-1.3c1,0,1.8,0.3,1.9,1.5h-0.8c-0.1-0.6-0.6-0.8-1.1-0.8c-0.5,0-1,0.1-1,0.6c0,0.5,0.8,0.6,1.5,0.8
		c0.8,0.2,1.5,0.4,1.5,1.3c0,1.1-1,1.5-2,1.5c-1,0-1.9-0.4-2-1.6H86z"/>
</g>
<g>
	<path class="st0" d="M34.6,64H37c0.6,0,1.3,0,1.7,0.2c0.4,0.3,0.8,0.7,0.8,1.3c0,0.7-0.4,1.2-1,1.4v0c0.8,0.2,1.2,0.8,1.2,1.5
		c0,0.9-0.7,1.8-2,1.8h-3.1V64z M35.5,66.8h1.7c1,0,1.4-0.4,1.4-1c0-0.9-0.6-1-1.4-1h-1.7V66.8z M35.5,69.8h2.1
		c0.7,0,1.2-0.4,1.2-1.2c0-0.8-0.7-1.1-1.4-1.1h-2V69.8z"/>
	<path class="st0" d="M41.5,65h-0.8V64h0.8V65z M40.7,65.8h0.8v4.7h-0.8V65.8z"/>
	<path class="st0" d="M44.7,65.7c1.5,0,2.3,1.1,2.3,2.4c0,1.4-0.8,2.4-2.3,2.4c-1.5,0-2.3-1.1-2.3-2.4
		C42.4,66.8,43.2,65.7,44.7,65.7z M44.7,69.9c0.8,0,1.4-0.6,1.4-1.8c0-1.1-0.6-1.8-1.4-1.8c-0.8,0-1.4,0.6-1.4,1.8
		C43.2,69.3,43.9,69.9,44.7,69.9z"/>
	<path class="st0" d="M52,70.5h-0.8v-0.6h0c-0.3,0.5-0.8,0.7-1.5,0.7c-1.4,0-2.1-1.1-2.1-2.4s0.7-2.4,2.1-2.4c0.5,0,1.2,0.2,1.5,0.7
		h0V64H52V70.5z M49.8,69.9c1,0,1.4-0.9,1.4-1.8c0-0.9-0.4-1.8-1.5-1.8c-1,0-1.4,0.9-1.4,1.8C48.4,69.1,48.8,69.9,49.8,69.9z"/>
	<path class="st0" d="M54,65h-0.8V64H54V65z M53.2,65.8H54v4.7h-0.8V65.8z"/>
	<path class="st0" d="M59.1,69c-0.2,1-0.9,1.6-2,1.6c-1.5,0-2.2-1-2.2-2.4c0-1.4,0.9-2.4,2.2-2.4c1.6,0,2.2,1.5,2.1,2.7h-3.5
		c0,0.8,0.4,1.5,1.4,1.5c0.6,0,1.1-0.3,1.2-0.9H59.1z M58.4,67.7c0-0.7-0.6-1.3-1.3-1.3c-0.8,0-1.3,0.6-1.3,1.3H58.4z"/>
	<path class="st0" d="M60.5,69c0,0.7,0.6,0.9,1.3,0.9c0.5,0,1.1-0.1,1.1-0.7c0-0.6-0.8-0.7-1.5-0.9c-0.8-0.2-1.5-0.4-1.5-1.3
		c0-0.9,0.9-1.3,1.7-1.3c1,0,1.8,0.3,1.9,1.5h-0.8c-0.1-0.6-0.6-0.8-1.1-0.8c-0.5,0-1,0.1-1,0.6c0,0.5,0.8,0.6,1.5,0.8
		c0.8,0.2,1.5,0.4,1.5,1.3c0,1.1-1,1.5-2,1.5c-1,0-1.9-0.4-2-1.6H60.5z"/>
	<path class="st0" d="M68.5,69c-0.2,1-0.9,1.6-2,1.6c-1.5,0-2.2-1-2.2-2.4c0-1.4,0.9-2.4,2.2-2.4c1.6,0,2.2,1.5,2.1,2.7H65
		c0,0.8,0.4,1.5,1.4,1.5c0.6,0,1.1-0.3,1.2-0.9H68.5z M67.7,67.7c0-0.7-0.6-1.3-1.3-1.3c-0.8,0-1.3,0.6-1.3,1.3H67.7z"/>
	<path class="st0" d="M69.4,64h0.8v6.4h-0.8V64z"/>
</g>
<g>
	<path class="st0" d="M35.8,81.3c-0.9-1.4-1.4-2.6-1.4-4.2c0-1.4,0.5-2.9,1.4-4.2h0.6c-0.9,1.4-1.2,2.7-1.2,4.2
		c0,1.5,0.3,2.8,1.2,4.2H35.8z"/>
	<path class="st0" d="M37.3,78c0,0.7,0.6,0.9,1.3,0.9c0.5,0,1.1-0.1,1.1-0.7c0-0.6-0.8-0.7-1.5-0.9c-0.8-0.2-1.5-0.4-1.5-1.3
		c0-0.9,0.9-1.3,1.7-1.3c1,0,1.8,0.3,1.9,1.5h-0.8c-0.1-0.6-0.6-0.8-1.1-0.8c-0.5,0-1,0.1-1,0.6c0,0.5,0.8,0.6,1.5,0.8
		c0.8,0.2,1.5,0.4,1.5,1.3c0,1.1-1,1.5-2,1.5c-1,0-1.9-0.4-2-1.6H37.3z"/>
	<path class="st0" d="M43.3,74.7c1.5,0,2.3,1.1,2.3,2.4c0,1.4-0.8,2.4-2.3,2.4c-1.5,0-2.3-1.1-2.3-2.4
		C41.1,75.8,41.9,74.7,43.3,74.7z M43.3,78.9c0.8,0,1.4-0.6,1.4-1.8c0-1.1-0.6-1.8-1.4-1.8c-0.8,0-1.4,0.6-1.4,1.8
		C41.9,78.3,42.5,78.9,43.3,78.9z"/>
	<path class="st0" d="M48.3,80.1C48,81,47.7,81.3,47,81.3c-0.2,0-0.4,0-0.5-0.1v-0.7c0.1,0,0.3,0.1,0.5,0.1c0.3,0,0.5-0.2,0.6-0.4
		l0.3-0.8L46,74.8h0.9l1.4,3.8h0l1.3-3.8h0.8L48.3,80.1z"/>
	<path class="st0" d="M51,73h0.8v2.4h0c0.3-0.5,0.8-0.7,1.5-0.7c1.4,0,2.1,1.1,2.1,2.4s-0.7,2.4-2.1,2.4c-0.5,0-1.2-0.2-1.5-0.7h0
		v0.6H51V73z M53.2,75.4c-1,0-1.4,0.9-1.4,1.8c0,0.9,0.4,1.8,1.5,1.8c1,0,1.4-0.9,1.4-1.8C54.6,76.2,54.2,75.4,53.2,75.4z"/>
	<path class="st0" d="M60.3,78c-0.2,1-0.9,1.6-2,1.6c-1.5,0-2.2-1-2.2-2.4c0-1.4,0.9-2.4,2.2-2.4c1.6,0,2.2,1.5,2.1,2.7h-3.5
		c0,0.8,0.4,1.5,1.4,1.5c0.6,0,1.1-0.3,1.2-0.9H60.3z M59.6,76.7c0-0.7-0.6-1.3-1.3-1.3c-0.8,0-1.3,0.6-1.3,1.3H59.6z"/>
	<path class="st0" d="M65.3,79.5c-0.1,0.1-0.3,0.1-0.5,0.1c-0.4,0-0.6-0.2-0.6-0.7c-0.4,0.5-1,0.7-1.6,0.7c-0.8,0-1.5-0.4-1.5-1.3
		c0-1.1,0.8-1.3,1.6-1.4c0.8-0.2,1.6-0.1,1.6-0.7c0-0.7-0.5-0.8-1-0.8c-0.6,0-1.1,0.2-1.2,0.9h-0.8c0-1.2,0.9-1.6,2-1.6
		c0.8,0,1.7,0.2,1.7,1.3v2.4c0,0.4,0,0.5,0.2,0.5c0.1,0,0.1,0,0.2,0V79.5z M64,77.1c-0.3,0.2-0.9,0.2-1.4,0.3
		c-0.5,0.1-0.9,0.3-0.9,0.8c0,0.5,0.4,0.7,0.9,0.7c1,0,1.4-0.6,1.4-1.1V77.1z"/>
	<path class="st0" d="M66,74.8h0.7v0.7h0c0.3-0.6,0.8-0.8,1.5-0.8c1.2,0,1.6,0.7,1.6,1.7v3.1h-0.8v-3.2c0-0.6-0.4-0.9-0.9-0.9
		c-0.9,0-1.4,0.6-1.4,1.5v2.6H66V74.8z"/>
	<path class="st0" d="M71.5,78c0,0.7,0.6,0.9,1.3,0.9c0.5,0,1.1-0.1,1.1-0.7c0-0.6-0.8-0.7-1.5-0.9c-0.8-0.2-1.5-0.4-1.5-1.3
		c0-0.9,0.9-1.3,1.7-1.3c1,0,1.8,0.3,1.9,1.5h-0.8c-0.1-0.6-0.6-0.8-1.1-0.8c-0.5,0-1,0.1-1,0.6c0,0.5,0.8,0.6,1.5,0.8
		c0.8,0.2,1.5,0.4,1.5,1.3c0,1.1-1,1.5-2,1.5c-1,0-1.9-0.4-2-1.6H71.5z"/>
	<path class="st0" d="M74.8,81.3c0.9-1.4,1.2-2.7,1.2-4.2c0-1.5-0.3-2.8-1.2-4.2h0.6c0.9,1.4,1.4,2.6,1.4,4.2c0,1.4-0.5,2.9-1.4,4.2
		H74.8z"/>
</g>
<g>
	<path class="st0" d="M39.1,93c-0.2-0.9-0.9-1.4-1.8-1.4c-1.5,0-2.2,1.3-2.2,2.6c0,1.5,0.6,2.7,2.2,2.7c1.1,0,1.8-0.8,1.9-1.9h0.9
		c-0.2,1.6-1.2,2.6-2.8,2.6c-2,0-3-1.5-3-3.3c0-1.9,1.1-3.4,3-3.4c1.3,0,2.4,0.7,2.6,2.1H39.1z"/>
	<path class="st0" d="M43,92.7c1.5,0,2.3,1.1,2.3,2.4c0,1.4-0.8,2.4-2.3,2.4c-1.5,0-2.3-1.1-2.3-2.4C40.7,93.8,41.5,92.7,43,92.7z
		 M43,96.9c0.8,0,1.4-0.6,1.4-1.8c0-1.1-0.6-1.8-1.4-1.8c-0.8,0-1.4,0.6-1.4,1.8C41.6,96.3,42.2,96.9,43,96.9z"/>
	<path class="st0" d="M49.3,94.3c-0.1-0.6-0.5-0.9-1.2-0.9c-1.1,0-1.4,0.9-1.4,1.8c0,0.9,0.4,1.7,1.4,1.7c0.7,0,1.2-0.4,1.3-1.1h0.8
		c-0.2,1.1-0.9,1.8-2.1,1.8c-1.4,0-2.2-1-2.2-2.4c0-1.4,0.7-2.5,2.2-2.5c1.1,0,1.9,0.5,2,1.6H49.3z"/>
	<path class="st0" d="M53,92.7c1.5,0,2.3,1.1,2.3,2.4c0,1.4-0.8,2.4-2.3,2.4c-1.5,0-2.3-1.1-2.3-2.4C50.7,93.8,51.5,92.7,53,92.7z
		 M53,96.9c0.8,0,1.4-0.6,1.4-1.8c0-1.1-0.6-1.8-1.4-1.8s-1.4,0.6-1.4,1.8C51.5,96.3,52.2,96.9,53,96.9z"/>
	<path class="st0" d="M60.3,97.5c-0.1,0.1-0.3,0.1-0.5,0.1c-0.4,0-0.6-0.2-0.6-0.7c-0.4,0.5-1,0.7-1.6,0.7c-0.8,0-1.5-0.4-1.5-1.3
		c0-1.1,0.8-1.3,1.6-1.4c0.8-0.2,1.6-0.1,1.6-0.7c0-0.7-0.5-0.8-1-0.8c-0.6,0-1.1,0.2-1.2,0.9h-0.8c0-1.2,0.9-1.6,2-1.6
		c0.8,0,1.7,0.2,1.7,1.3v2.4c0,0.4,0,0.5,0.2,0.5c0.1,0,0.1,0,0.2,0V97.5z M59,95.1c-0.3,0.2-0.9,0.2-1.4,0.3
		c-0.5,0.1-0.9,0.3-0.9,0.8c0,0.5,0.4,0.7,0.9,0.7c1,0,1.4-0.6,1.4-1.1V95.1z"/>
</g>
<g>
	<path class="st0" d="M38,105.7c-0.4,0.6-1.1,0.9-1.8,0.9c-1.7,0-2-1.2-2-1.8c0-1,0.7-1.5,1.5-1.9c-0.4-0.5-0.7-0.9-0.7-1.5
		c0-0.7,0.5-1.3,1.4-1.3c0.8,0,1.6,0.4,1.6,1.3c0,0.8-0.6,1.3-1.2,1.7l1.2,1.4c0.1-0.3,0.2-0.7,0.2-1h0.7c-0.1,0.8-0.2,1-0.4,1.6
		l1.3,1.4h-1L38,105.7z M36.1,103.4c-0.6,0.3-1.1,0.7-1.1,1.4c0,0.6,0.6,1.1,1.2,1.1c0.6,0,1.1-0.3,1.4-0.8L36.1,103.4z M37.2,101.4
		c0-0.4-0.3-0.7-0.7-0.7c-0.4,0-0.7,0.2-0.7,0.7c0,0.4,0.3,0.8,0.6,1.1C36.8,102.3,37.2,101.9,37.2,101.4z"/>
	<path class="st0" d="M47.3,102c-0.2-0.9-0.9-1.4-1.8-1.4c-1.5,0-2.2,1.3-2.2,2.6c0,1.5,0.6,2.7,2.2,2.7c1.1,0,1.8-0.8,1.9-1.9h0.9
		c-0.2,1.6-1.2,2.6-2.8,2.6c-2,0-3-1.5-3-3.3c0-1.9,1.1-3.4,3-3.4c1.3,0,2.4,0.7,2.6,2.1H47.3z"/>
	<path class="st0" d="M49.2,100h0.8v2.5h0c0.3-0.6,0.9-0.8,1.5-0.8c1.2,0,1.6,0.7,1.6,1.7v3.1h-0.8v-3.2c0-0.6-0.4-0.9-0.9-0.9
		c-0.9,0-1.4,0.6-1.4,1.5v2.6h-0.8V100z"/>
	<path class="st0" d="M56.2,101.7c1.5,0,2.3,1.1,2.3,2.4c0,1.4-0.8,2.4-2.3,2.4c-1.5,0-2.3-1.1-2.3-2.4
		C53.9,102.8,54.7,101.7,56.2,101.7z M56.2,105.9c0.8,0,1.4-0.6,1.4-1.8c0-1.1-0.6-1.8-1.4-1.8c-0.8,0-1.4,0.6-1.4,1.8
		C54.7,105.3,55.4,105.9,56.2,105.9z"/>
	<path class="st0" d="M62.5,103.3c-0.1-0.6-0.5-0.9-1.2-0.9c-1.1,0-1.4,0.9-1.4,1.8c0,0.9,0.4,1.7,1.4,1.7c0.7,0,1.2-0.4,1.3-1.1
		h0.8c-0.2,1.1-0.9,1.8-2.1,1.8c-1.4,0-2.2-1-2.2-2.4c0-1.4,0.7-2.5,2.2-2.5c1.1,0,1.9,0.5,2,1.6H62.5z"/>
	<path class="st0" d="M66.2,101.7c1.5,0,2.3,1.1,2.3,2.4c0,1.4-0.8,2.4-2.3,2.4c-1.5,0-2.3-1.1-2.3-2.4
		C63.9,102.8,64.7,101.7,66.2,101.7z M66.2,105.9c0.8,0,1.4-0.6,1.4-1.8c0-1.1-0.6-1.8-1.4-1.8s-1.4,0.6-1.4,1.8
		C64.7,105.3,65.4,105.9,66.2,105.9z"/>
	<path class="st0" d="M69.4,100h0.8v6.4h-0.8V100z"/>
	<path class="st0" d="M75.5,106.5c-0.1,0.1-0.3,0.1-0.5,0.1c-0.4,0-0.6-0.2-0.6-0.7c-0.4,0.5-1,0.7-1.6,0.7c-0.8,0-1.5-0.4-1.5-1.3
		c0-1.1,0.8-1.3,1.6-1.4c0.8-0.2,1.6-0.1,1.6-0.7c0-0.7-0.5-0.8-1-0.8c-0.6,0-1.1,0.2-1.2,0.9h-0.8c0-1.2,0.9-1.6,2-1.6
		c0.8,0,1.7,0.2,1.7,1.3v2.4c0,0.4,0,0.5,0.2,0.5c0.1,0,0.1,0,0.2,0V106.5z M74.2,104.1c-0.3,0.2-0.9,0.2-1.4,0.3
		c-0.5,0.1-0.9,0.3-0.9,0.8c0,0.5,0.4,0.7,0.9,0.7c1,0,1.4-0.6,1.4-1.1V104.1z"/>
	<path class="st0" d="M77.2,101.8h0.9v0.7h-0.9v2.9c0,0.4,0.1,0.4,0.6,0.4h0.4v0.7h-0.6c-0.8,0-1.1-0.2-1.1-1v-3h-0.8v-0.7h0.8v-1.4
		h0.8V101.8z"/>
	<path class="st0" d="M83,105c-0.2,1-0.9,1.6-2,1.6c-1.5,0-2.2-1-2.2-2.4c0-1.4,0.9-2.4,2.2-2.4c1.6,0,2.2,1.5,2.1,2.7h-3.5
		c0,0.8,0.4,1.5,1.4,1.5c0.6,0,1.1-0.3,1.2-0.9H83z M82.2,103.7c0-0.7-0.6-1.3-1.3-1.3c-0.8,0-1.3,0.6-1.3,1.3H82.2z"/>
</g>
<g>
	<path class="st0" d="M39.1,120c-0.2-0.9-0.9-1.4-1.8-1.4c-1.5,0-2.2,1.3-2.2,2.6c0,1.5,0.6,2.7,2.2,2.7c1.1,0,1.8-0.8,1.9-1.9h0.9
		c-0.2,1.6-1.2,2.6-2.8,2.6c-2,0-3-1.5-3-3.3c0-1.9,1.1-3.4,3-3.4c1.3,0,2.4,0.7,2.6,2.1H39.1z"/>
	<path class="st0" d="M45.1,124.5c-0.1,0.1-0.3,0.1-0.5,0.1c-0.4,0-0.6-0.2-0.6-0.7c-0.4,0.5-1,0.7-1.6,0.7c-0.8,0-1.5-0.4-1.5-1.3
		c0-1.1,0.8-1.3,1.6-1.4c0.8-0.2,1.6-0.1,1.6-0.7c0-0.7-0.5-0.8-1-0.8c-0.6,0-1.1,0.2-1.2,0.9h-0.8c0-1.2,0.9-1.6,2-1.6
		c0.8,0,1.7,0.2,1.7,1.3v2.4c0,0.4,0,0.5,0.2,0.5c0.1,0,0.1,0,0.2,0V124.5z M43.9,122.1c-0.3,0.2-0.9,0.2-1.4,0.3
		c-0.5,0.1-0.9,0.3-0.9,0.8c0,0.5,0.4,0.7,0.9,0.7c1,0,1.4-0.6,1.4-1.1V122.1z"/>
	<path class="st0" d="M45.8,119.8h0.7v1h0c0.4-0.7,0.9-1.1,1.7-1.1v0.8c-1.2,0-1.7,0.7-1.7,1.9v2.1h-0.8V119.8z"/>
	<path class="st0" d="M52.6,124.1c0,1.5-0.7,2.3-2.2,2.3c-0.9,0-1.9-0.4-1.9-1.4h0.8c0,0.6,0.7,0.8,1.2,0.8c1,0,1.4-0.7,1.4-1.8
		v-0.3h0c-0.3,0.6-0.9,0.8-1.4,0.8c-1.4,0-2.1-1.1-2.1-2.4c0-1.1,0.5-2.5,2.2-2.5c0.6,0,1.1,0.3,1.4,0.8h0v-0.7h0.7V124.1z
		 M51.8,122.1c0-0.8-0.4-1.7-1.3-1.7c-1,0-1.4,0.8-1.4,1.7c0,0.8,0.3,1.8,1.3,1.8S51.8,122.9,51.8,122.1z"/>
	<path class="st0" d="M54.6,119h-0.8V118h0.8V119z M53.8,119.8h0.8v4.7h-0.8V119.8z"/>
	<path class="st0" d="M55.8,118h0.8v6.4h-0.8V118z"/>
	<path class="st0" d="M57.8,118h0.8v6.4h-0.8V118z"/>
	<path class="st0" d="M62.4,118h0.9v6.4h-0.9V118z"/>
	<path class="st0" d="M64.6,119.8h0.7v0.7h0c0.3-0.6,0.8-0.8,1.5-0.8c1.2,0,1.6,0.7,1.6,1.7v3.1h-0.8v-3.2c0-0.6-0.4-0.9-0.9-0.9
		c-0.9,0-1.4,0.6-1.4,1.5v2.6h-0.8V119.8z"/>
	<path class="st0" d="M73.7,124.5H73v-0.6h0c-0.3,0.5-0.8,0.7-1.5,0.7c-1.4,0-2.1-1.1-2.1-2.4s0.7-2.4,2.1-2.4
		c0.5,0,1.2,0.2,1.5,0.7h0V118h0.8V124.5z M71.6,123.9c1,0,1.4-0.9,1.4-1.8c0-0.9-0.4-1.8-1.5-1.8c-1,0-1.4,0.9-1.4,1.8
		C70.1,123.1,70.6,123.9,71.6,123.9z"/>
	<path class="st0" d="M78.8,124.5H78v-0.7h0c-0.3,0.6-0.8,0.8-1.5,0.8c-1.2,0-1.6-0.7-1.6-1.7v-3.1h0.8v3.2c0,0.6,0.4,0.9,0.9,0.9
		c0.9,0,1.4-0.6,1.4-1.5v-2.6h0.8V124.5z"/>
	<path class="st0" d="M80.4,123c0,0.7,0.6,0.9,1.3,0.9c0.5,0,1.1-0.1,1.1-0.7c0-0.6-0.8-0.7-1.5-0.9c-0.8-0.2-1.5-0.4-1.5-1.3
		c0-0.9,0.9-1.3,1.7-1.3c1,0,1.8,0.3,1.9,1.5h-0.8c-0.1-0.6-0.6-0.8-1.1-0.8c-0.5,0-1,0.1-1,0.6c0,0.5,0.8,0.6,1.5,0.8
		c0.8,0.2,1.5,0.4,1.5,1.3c0,1.1-1,1.5-2,1.5c-1,0-1.9-0.4-2-1.6H80.4z"/>
	<path class="st0" d="M85.5,119.8h0.9v0.7h-0.9v2.9c0,0.4,0.1,0.4,0.6,0.4h0.4v0.7h-0.6c-0.8,0-1.1-0.2-1.1-1v-3h-0.8v-0.7h0.8v-1.4
		h0.8V119.8z"/>
	<path class="st0" d="M87.2,119.8h0.7v1h0c0.4-0.7,0.9-1.1,1.7-1.1v0.8c-1.2,0-1.7,0.7-1.7,1.9v2.1h-0.8V119.8z"/>
	<path class="st0" d="M91.1,119h-0.8V118h0.8V119z M90.3,119.8h0.8v4.7h-0.8V119.8z"/>
	<path class="st0" d="M96.4,124.5c-0.1,0.1-0.3,0.1-0.5,0.1c-0.4,0-0.6-0.2-0.6-0.7c-0.4,0.5-1,0.7-1.6,0.7c-0.8,0-1.5-0.4-1.5-1.3
		c0-1.1,0.8-1.3,1.6-1.4c0.8-0.2,1.6-0.1,1.6-0.7c0-0.7-0.5-0.8-1-0.8c-0.6,0-1.1,0.2-1.2,0.9h-0.8c0-1.2,0.9-1.6,2-1.6
		c0.8,0,1.7,0.2,1.7,1.3v2.4c0,0.4,0,0.5,0.2,0.5c0.1,0,0.1,0,0.2,0V124.5z M95.1,122.1c-0.3,0.2-0.9,0.2-1.4,0.3
		c-0.5,0.1-0.9,0.3-0.9,0.8c0,0.5,0.4,0.7,0.9,0.7c1,0,1.4-0.6,1.4-1.1V122.1z"/>
	<path class="st0" d="M97.1,118h0.8v6.4h-0.8V118z"/>
</g>
<g>
	<path class="st0" d="M38.3,128.9c-0.1-0.9-0.7-1.3-1.6-1.3c-0.7,0-1.4,0.3-1.4,1.1c0,0.8,1,0.9,2.1,1.1c1,0.2,2.1,0.6,2.1,1.9
		c0,1.4-1.3,1.9-2.5,1.9c-1.4,0-2.7-0.7-2.7-2.3h0.8c0,1.1,0.9,1.5,1.9,1.5c0.8,0,1.6-0.2,1.6-1.2c0-0.9-1-1-2.1-1.3
		c-1-0.2-2.1-0.5-2.1-1.7c0-1.3,1.2-1.9,2.3-1.9c1.3,0,2.3,0.6,2.4,2H38.3z"/>
	<path class="st0" d="M40.4,128.8h0.8v0.6h0c0.3-0.5,0.8-0.7,1.5-0.7c1.4,0,2.1,1.1,2.1,2.4s-0.7,2.4-2.1,2.4
		c-0.5,0-1.2-0.2-1.5-0.7h0v2.4h-0.8V128.8z M42.5,129.4c-1,0-1.4,0.9-1.4,1.8c0,0.9,0.4,1.8,1.5,1.8c1,0,1.4-0.9,1.4-1.8
		C44,130.2,43.5,129.4,42.5,129.4z"/>
	<path class="st0" d="M49.6,132c-0.2,1-0.9,1.6-2,1.6c-1.5,0-2.2-1-2.2-2.4c0-1.4,0.9-2.4,2.2-2.4c1.6,0,2.2,1.5,2.1,2.7h-3.5
		c0,0.8,0.4,1.5,1.4,1.5c0.6,0,1.1-0.3,1.2-0.9H49.6z M48.9,130.7c0-0.7-0.6-1.3-1.3-1.3c-0.8,0-1.3,0.6-1.3,1.3H48.9z"/>
	<path class="st0" d="M53.7,130.3c-0.1-0.6-0.5-0.9-1.2-0.9c-1.1,0-1.4,0.9-1.4,1.8c0,0.9,0.4,1.7,1.4,1.7c0.7,0,1.2-0.4,1.3-1.1
		h0.8c-0.2,1.1-0.9,1.8-2.1,1.8c-1.4,0-2.2-1-2.2-2.4c0-1.4,0.7-2.5,2.2-2.5c1.1,0,1.9,0.5,2,1.6H53.7z"/>
	<path class="st0" d="M56.1,128h-0.8V127h0.8V128z M55.4,128.8h0.8v4.7h-0.8V128.8z"/>
	<path class="st0" d="M61.4,133.5c-0.1,0.1-0.3,0.1-0.5,0.1c-0.4,0-0.6-0.2-0.6-0.7c-0.4,0.5-1,0.7-1.6,0.7c-0.8,0-1.5-0.4-1.5-1.3
		c0-1.1,0.8-1.3,1.6-1.4c0.8-0.2,1.6-0.1,1.6-0.7c0-0.7-0.5-0.8-1-0.8c-0.6,0-1.1,0.2-1.2,0.9h-0.8c0-1.2,0.9-1.6,2-1.6
		c0.8,0,1.7,0.2,1.7,1.3v2.4c0,0.4,0,0.5,0.2,0.5c0.1,0,0.1,0,0.2,0V133.5z M60.2,131.1c-0.3,0.2-0.9,0.2-1.4,0.3
		c-0.5,0.1-0.9,0.3-0.9,0.8c0,0.5,0.4,0.7,0.9,0.7c1,0,1.4-0.6,1.4-1.1V131.1z"/>
	<path class="st0" d="M62.2,127H63v6.4h-0.8V127z"/>
	<path class="st0" d="M65.2,128.8h0.9v0.7h-0.9v2.9c0,0.4,0.1,0.4,0.6,0.4h0.4v0.7h-0.6c-0.8,0-1.1-0.2-1.1-1v-3h-0.8v-0.7h0.8v-1.4
		h0.8V128.8z"/>
	<path class="st0" d="M67.8,128H67V127h0.8V128z M67,128.8h0.8v4.7H67V128.8z"/>
	<path class="st0" d="M73,132c-0.2,1-0.9,1.6-2,1.6c-1.5,0-2.2-1-2.2-2.4c0-1.4,0.9-2.4,2.2-2.4c1.6,0,2.2,1.5,2.1,2.7h-3.5
		c0,0.8,0.4,1.5,1.4,1.5c0.6,0,1.1-0.3,1.2-0.9H73z M72.2,130.7c0-0.7-0.6-1.3-1.3-1.3c-0.8,0-1.3,0.6-1.3,1.3H72.2z"/>
	<path class="st0" d="M74.3,132c0,0.7,0.6,0.9,1.3,0.9c0.5,0,1.1-0.1,1.1-0.7c0-0.6-0.8-0.7-1.5-0.9c-0.8-0.2-1.5-0.4-1.5-1.3
		c0-0.9,0.9-1.3,1.7-1.3c1,0,1.8,0.3,1.9,1.5h-0.8c-0.1-0.6-0.6-0.8-1.1-0.8c-0.5,0-1,0.1-1,0.6c0,0.5,0.8,0.6,1.5,0.8
		c0.8,0.2,1.5,0.4,1.5,1.3c0,1.1-1,1.5-2,1.5c-1,0-1.9-0.4-2-1.6H74.3z"/>
</g>
<g>
	<path class="st0" d="M38.3,146.9c-0.1-0.9-0.7-1.3-1.6-1.3c-0.7,0-1.4,0.3-1.4,1.1c0,0.8,1,0.9,2.1,1.1c1,0.2,2.1,0.6,2.1,1.9
		c0,1.4-1.3,1.9-2.5,1.9c-1.4,0-2.7-0.7-2.7-2.3h0.8c0,1.1,0.9,1.5,1.9,1.5c0.8,0,1.6-0.2,1.6-1.2c0-0.9-1-1-2.1-1.3
		c-1-0.2-2.1-0.5-2.1-1.7c0-1.3,1.2-1.9,2.3-1.9c1.3,0,2.3,0.6,2.4,2H38.3z"/>
	<path class="st0" d="M40.3,145h0.8v2.5h0c0.3-0.6,0.9-0.8,1.5-0.8c1.2,0,1.6,0.7,1.6,1.7v3.1h-0.8v-3.2c0-0.6-0.4-0.9-0.9-0.9
		c-0.9,0-1.4,0.6-1.4,1.5v2.6h-0.8V145z"/>
	<path class="st0" d="M49.5,151.5c-0.1,0.1-0.3,0.1-0.5,0.1c-0.4,0-0.6-0.2-0.6-0.7c-0.4,0.5-1,0.7-1.6,0.7c-0.8,0-1.5-0.4-1.5-1.3
		c0-1.1,0.8-1.3,1.6-1.4c0.8-0.2,1.6-0.1,1.6-0.7c0-0.7-0.5-0.8-1-0.8c-0.6,0-1.1,0.2-1.2,0.9h-0.8c0-1.2,0.9-1.6,2-1.6
		c0.8,0,1.7,0.2,1.7,1.3v2.4c0,0.4,0,0.5,0.2,0.5c0.1,0,0.1,0,0.2,0V151.5z M48.2,149.1c-0.3,0.2-0.9,0.2-1.4,0.3
		c-0.5,0.1-0.9,0.3-0.9,0.8c0,0.5,0.4,0.7,0.9,0.7c1,0,1.4-0.6,1.4-1.1V149.1z"/>
	<path class="st0" d="M50.1,146.8h0.7v1h0c0.4-0.7,0.9-1.1,1.7-1.1v0.8c-1.2,0-1.7,0.7-1.7,1.9v2.1h-0.8V146.8z"/>
	<path class="st0" d="M57,150c-0.2,1-0.9,1.6-2,1.6c-1.5,0-2.2-1-2.2-2.4c0-1.4,0.9-2.4,2.2-2.4c1.6,0,2.2,1.5,2.1,2.7h-3.5
		c0,0.8,0.4,1.5,1.4,1.5c0.6,0,1.1-0.3,1.2-0.9H57z M56.2,148.7c0-0.7-0.6-1.3-1.3-1.3c-0.8,0-1.3,0.6-1.3,1.3H56.2z"/>
	<path class="st0" d="M62,151.5h-0.8v-0.6h0c-0.3,0.5-0.8,0.7-1.5,0.7c-1.4,0-2.1-1.1-2.1-2.4s0.7-2.4,2.1-2.4
		c0.5,0,1.2,0.2,1.5,0.7h0V145H62V151.5z M59.8,150.9c1,0,1.4-0.9,1.4-1.8c0-0.9-0.4-1.8-1.5-1.8c-1,0-1.4,0.9-1.4,1.8
		C58.4,150.1,58.8,150.9,59.8,150.9z"/>
</g>
<g>
	<path class="st0" d="M38.3,155.9c-0.1-0.9-0.7-1.3-1.6-1.3c-0.7,0-1.4,0.3-1.4,1.1c0,0.8,1,0.9,2.1,1.1c1,0.2,2.1,0.6,2.1,1.9
		c0,1.4-1.3,1.9-2.5,1.9c-1.4,0-2.7-0.7-2.7-2.3h0.8c0,1.1,0.9,1.5,1.9,1.5c0.8,0,1.6-0.2,1.6-1.2c0-0.9-1-1-2.1-1.3
		c-1-0.2-2.1-0.5-2.1-1.7c0-1.3,1.2-1.9,2.3-1.9c1.3,0,2.3,0.6,2.4,2H38.3z"/>
	<path class="st0" d="M44.3,159c-0.2,1-0.9,1.6-2,1.6c-1.5,0-2.2-1-2.2-2.4c0-1.4,0.9-2.4,2.2-2.4c1.6,0,2.2,1.5,2.1,2.7h-3.5
		c0,0.8,0.4,1.5,1.4,1.5c0.6,0,1.1-0.3,1.2-0.9H44.3z M43.6,157.7c0-0.7-0.6-1.3-1.3-1.3c-0.8,0-1.3,0.6-1.3,1.3H43.6z"/>
	<path class="st0" d="M45.1,155.8h0.7v1h0c0.4-0.7,0.9-1.1,1.7-1.1v0.8c-1.2,0-1.7,0.7-1.7,1.9v2.1h-0.8V155.8z"/>
	<path class="st0" d="M50.3,160.5h-0.8l-1.7-4.7h0.9l1.3,3.9h0l1.3-3.9H52L50.3,160.5z"/>
	<path class="st0" d="M53.5,155h-0.8V154h0.8V155z M52.7,155.8h0.8v4.7h-0.8V155.8z"/>
	<path class="st0" d="M57.8,157.3c-0.1-0.6-0.5-0.9-1.2-0.9c-1.1,0-1.4,0.9-1.4,1.8c0,0.9,0.4,1.7,1.4,1.7c0.7,0,1.2-0.4,1.3-1.1
		h0.8c-0.2,1.1-0.9,1.8-2.1,1.8c-1.4,0-2.2-1-2.2-2.4c0-1.4,0.7-2.5,2.2-2.5c1.1,0,1.9,0.5,2,1.6H57.8z"/>
	<path class="st0" d="M63.5,159c-0.2,1-0.9,1.6-2,1.6c-1.5,0-2.2-1-2.2-2.4c0-1.4,0.9-2.4,2.2-2.4c1.6,0,2.2,1.5,2.1,2.7H60
		c0,0.8,0.4,1.5,1.4,1.5c0.6,0,1.1-0.3,1.2-0.9H63.5z M62.7,157.7c0-0.7-0.6-1.3-1.3-1.3c-0.8,0-1.3,0.6-1.3,1.3H62.7z"/>
	<path class="st0" d="M64.8,159c0,0.7,0.6,0.9,1.3,0.9c0.5,0,1.1-0.1,1.1-0.7c0-0.6-0.8-0.7-1.5-0.9c-0.8-0.2-1.5-0.4-1.5-1.3
		c0-0.9,0.9-1.3,1.7-1.3c1,0,1.8,0.3,1.9,1.5H67c-0.1-0.6-0.6-0.8-1.1-0.8c-0.5,0-1,0.1-1,0.6c0,0.5,0.8,0.6,1.5,0.8
		c0.8,0.2,1.5,0.4,1.5,1.3c0,1.1-1,1.5-2,1.5c-1,0-1.9-0.4-2-1.6H64.8z"/>
</g>
<g>
	<path class="st0" d="M39.1,165c-0.2-0.9-0.9-1.4-1.8-1.4c-1.5,0-2.2,1.3-2.2,2.6c0,1.5,0.6,2.7,2.2,2.7c1.1,0,1.8-0.8,1.9-1.9h0.9
		c-0.2,1.6-1.2,2.6-2.8,2.6c-2,0-3-1.5-3-3.3c0-1.9,1.1-3.4,3-3.4c1.3,0,2.4,0.7,2.6,2.1H39.1z"/>
	<path class="st0" d="M45,168c-0.2,1-0.9,1.6-2,1.6c-1.5,0-2.2-1-2.2-2.4c0-1.4,0.9-2.4,2.2-2.4c1.6,0,2.2,1.5,2.1,2.7h-3.5
		c0,0.8,0.4,1.5,1.4,1.5c0.6,0,1.1-0.3,1.2-0.9H45z M44.2,166.7c0-0.7-0.6-1.3-1.3-1.3c-0.8,0-1.3,0.6-1.3,1.3H44.2z"/>
	<path class="st0" d="M45.8,164.8h0.7v0.7h0c0.3-0.6,0.8-0.8,1.5-0.8c1.2,0,1.6,0.7,1.6,1.7v3.1h-0.8v-3.2c0-0.6-0.4-0.9-0.9-0.9
		c-0.9,0-1.4,0.6-1.4,1.5v2.6h-0.8V164.8z"/>
	<path class="st0" d="M51.9,164.8h0.9v0.7h-0.9v2.9c0,0.4,0.1,0.4,0.6,0.4h0.4v0.7h-0.6c-0.8,0-1.1-0.2-1.1-1v-3h-0.8v-0.7h0.8v-1.4
		h0.8V164.8z"/>
	<path class="st0" d="M57.6,168c-0.2,1-0.9,1.6-2,1.6c-1.5,0-2.2-1-2.2-2.4c0-1.4,0.9-2.4,2.2-2.4c1.6,0,2.2,1.5,2.1,2.7h-3.5
		c0,0.8,0.4,1.5,1.4,1.5c0.6,0,1.1-0.3,1.2-0.9H57.6z M56.9,166.7c0-0.7-0.6-1.3-1.3-1.3c-0.8,0-1.3,0.6-1.3,1.3H56.9z"/>
	<path class="st0" d="M58.5,164.8h0.7v1h0c0.4-0.7,0.9-1.1,1.7-1.1v0.8c-1.2,0-1.7,0.7-1.7,1.9v2.1h-0.8V164.8z"/>
</g>
<g>
	<path class="st0" d="M39.1,183c-0.2-0.9-0.9-1.4-1.8-1.4c-1.5,0-2.2,1.3-2.2,2.6c0,1.5,0.6,2.7,2.2,2.7c1.1,0,1.8-0.8,1.9-1.9h0.9
		c-0.2,1.6-1.2,2.6-2.8,2.6c-2,0-3-1.5-3-3.3c0-1.9,1.1-3.4,3-3.4c1.3,0,2.4,0.7,2.6,2.1H39.1z"/>
	<path class="st0" d="M45.1,187.5c-0.1,0.1-0.3,0.1-0.5,0.1c-0.4,0-0.6-0.2-0.6-0.7c-0.4,0.5-1,0.7-1.6,0.7c-0.8,0-1.5-0.4-1.5-1.3
		c0-1.1,0.8-1.3,1.6-1.4c0.8-0.2,1.6-0.1,1.6-0.7c0-0.7-0.5-0.8-1-0.8c-0.6,0-1.1,0.2-1.2,0.9h-0.8c0-1.2,0.9-1.6,2-1.6
		c0.8,0,1.7,0.2,1.7,1.3v2.4c0,0.4,0,0.5,0.2,0.5c0.1,0,0.1,0,0.2,0V187.5z M43.9,185.1c-0.3,0.2-0.9,0.2-1.4,0.3
		c-0.5,0.1-0.9,0.3-0.9,0.8c0,0.5,0.4,0.7,0.9,0.7c1,0,1.4-0.6,1.4-1.1V185.1z"/>
	<path class="st0" d="M45.8,182.8h0.7v1h0c0.4-0.7,0.9-1.1,1.7-1.1v0.8c-1.2,0-1.7,0.7-1.7,1.9v2.1h-0.8V182.8z"/>
	<path class="st0" d="M52.6,187.1c0,1.5-0.7,2.3-2.2,2.3c-0.9,0-1.9-0.4-1.9-1.4h0.8c0,0.6,0.7,0.8,1.2,0.8c1,0,1.4-0.7,1.4-1.8
		v-0.3h0c-0.3,0.6-0.9,0.8-1.4,0.8c-1.4,0-2.1-1.1-2.1-2.4c0-1.1,0.5-2.5,2.2-2.5c0.6,0,1.1,0.3,1.4,0.8h0v-0.7h0.7V187.1z
		 M51.8,185.1c0-0.8-0.4-1.7-1.3-1.7c-1,0-1.4,0.8-1.4,1.7c0,0.8,0.3,1.8,1.3,1.8S51.8,185.9,51.8,185.1z"/>
	<path class="st0" d="M54.6,182h-0.8V181h0.8V182z M53.8,182.8h0.8v4.7h-0.8V182.8z"/>
	<path class="st0" d="M55.8,181h0.8v6.4h-0.8V181z"/>
	<path class="st0" d="M57.8,181h0.8v6.4h-0.8V181z"/>
	<path class="st0" d="M64.1,181h0.9l2.5,6.4h-0.9l-0.7-1.9h-2.7l-0.7,1.9h-0.9L64.1,181z M63.5,184.8h2.2l-1.1-3h0L63.5,184.8z"/>
	<path class="st0" d="M68.1,182.8h0.7v0.7h0c0.3-0.6,0.8-0.8,1.5-0.8c1.2,0,1.6,0.7,1.6,1.7v3.1h-0.8v-3.2c0-0.6-0.4-0.9-0.9-0.9
		c-0.9,0-1.4,0.6-1.4,1.5v2.6h-0.8V182.8z"/>
	<path class="st0" d="M73.9,182h-0.8V181h0.8V182z M73.1,182.8h0.8v4.7h-0.8V182.8z"/>
	<path class="st0" d="M75.1,182.8h0.7v0.7h0c0.3-0.5,0.9-0.8,1.5-0.8c0.6,0,1.1,0.2,1.3,0.8c0.3-0.5,0.9-0.8,1.5-0.8
		c0.9,0,1.5,0.4,1.5,1.4v3.4h-0.8v-3.1c0-0.6-0.2-1-0.9-1c-0.7,0-1.2,0.5-1.2,1.2v2.9H78v-3.1c0-0.6-0.2-1-0.9-1
		c-0.9,0-1.2,0.8-1.2,1.2v2.9h-0.8V182.8z"/>
	<path class="st0" d="M86.9,187.5c-0.1,0.1-0.3,0.1-0.5,0.1c-0.4,0-0.6-0.2-0.6-0.7c-0.4,0.5-1,0.7-1.6,0.7c-0.8,0-1.5-0.4-1.5-1.3
		c0-1.1,0.8-1.3,1.6-1.4c0.8-0.2,1.6-0.1,1.6-0.7c0-0.7-0.5-0.8-1-0.8c-0.6,0-1.1,0.2-1.2,0.9h-0.8c0-1.2,0.9-1.6,2-1.6
		c0.8,0,1.7,0.2,1.7,1.3v2.4c0,0.4,0,0.5,0.2,0.5c0.1,0,0.1,0,0.2,0V187.5z M85.6,185.1c-0.3,0.2-0.9,0.2-1.4,0.3
		c-0.5,0.1-0.9,0.3-0.9,0.8c0,0.5,0.4,0.7,0.9,0.7c1,0,1.4-0.6,1.4-1.1V185.1z"/>
	<path class="st0" d="M87.6,181h0.8v6.4h-0.8V181z"/>
</g>
<g>
	<path class="st0" d="M34.6,190h0.9l3.4,5.2h0V190h0.8v6.4h-0.9l-3.4-5.2h0v5.2h-0.8V190z"/>
	<path class="st0" d="M44.8,196.5h-0.7v-0.7h0c-0.3,0.6-0.8,0.8-1.5,0.8c-1.2,0-1.6-0.7-1.6-1.7v-3.1h0.8v3.2c0,0.6,0.4,0.9,0.9,0.9
		c0.9,0,1.4-0.6,1.4-1.5v-2.6h0.8V196.5z"/>
	<path class="st0" d="M47.1,191.8H48v0.7h-0.9v2.9c0,0.4,0.1,0.4,0.6,0.4H48v0.7h-0.6c-0.8,0-1.1-0.2-1.1-1v-3h-0.8v-0.7h0.8v-1.4
		h0.8V191.8z"/>
	<path class="st0" d="M48.8,191.8h0.7v1h0c0.4-0.7,0.9-1.1,1.7-1.1v0.8c-1.2,0-1.7,0.7-1.7,1.9v2.1h-0.8V191.8z"/>
	<path class="st0" d="M52.6,191h-0.8V190h0.8V191z M51.9,191.8h0.8v4.7h-0.8V191.8z"/>
	<path class="st0" d="M54.9,191.8h0.9v0.7h-0.9v2.9c0,0.4,0.1,0.4,0.6,0.4h0.4v0.7h-0.6c-0.8,0-1.1-0.2-1.1-1v-3h-0.8v-0.7h0.8v-1.4
		h0.8V191.8z"/>
	<path class="st0" d="M57.5,191h-0.8V190h0.8V191z M56.7,191.8h0.8v4.7h-0.8V191.8z"/>
	<path class="st0" d="M60.7,191.7c1.5,0,2.3,1.1,2.3,2.4c0,1.4-0.8,2.4-2.3,2.4c-1.5,0-2.3-1.1-2.3-2.4
		C58.4,192.8,59.2,191.7,60.7,191.7z M60.7,195.9c0.8,0,1.4-0.6,1.4-1.8c0-1.1-0.6-1.8-1.4-1.8c-0.8,0-1.4,0.6-1.4,1.8
		C59.2,195.3,59.9,195.9,60.7,195.9z"/>
	<path class="st0" d="M63.8,191.8h0.7v0.7h0c0.3-0.6,0.8-0.8,1.5-0.8c1.2,0,1.6,0.7,1.6,1.7v3.1h-0.8v-3.2c0-0.6-0.4-0.9-0.9-0.9
		c-0.9,0-1.4,0.6-1.4,1.5v2.6h-0.8V191.8z"/>
</g>
<g>
	<path class="st0" d="M34.7,208h0.9v6.4h-0.9V208z"/>
	<path class="st0" d="M36.8,209.8h0.7v0.7h0c0.3-0.6,0.8-0.8,1.5-0.8c1.2,0,1.6,0.7,1.6,1.7v3.1h-0.8v-3.2c0-0.6-0.4-0.9-0.9-0.9
		c-0.9,0-1.4,0.6-1.4,1.5v2.6h-0.8V209.8z"/>
	<path class="st0" d="M41.8,209.8h0.7v0.7h0c0.3-0.6,0.8-0.8,1.5-0.8c1.2,0,1.6,0.7,1.6,1.7v3.1h-0.8v-3.2c0-0.6-0.4-0.9-0.9-0.9
		c-0.9,0-1.4,0.6-1.4,1.5v2.6h-0.8V209.8z"/>
	<path class="st0" d="M48.8,209.7c1.5,0,2.3,1.1,2.3,2.4c0,1.4-0.8,2.4-2.3,2.4c-1.5,0-2.3-1.1-2.3-2.4
		C46.6,210.8,47.4,209.7,48.8,209.7z M48.8,213.9c0.8,0,1.4-0.6,1.4-1.8c0-1.1-0.6-1.8-1.4-1.8c-0.8,0-1.4,0.6-1.4,1.8
		C47.4,213.3,48,213.9,48.8,213.9z"/>
	<path class="st0" d="M54.1,214.5h-0.8l-1.7-4.7h0.9l1.3,3.9h0l1.3-3.9h0.8L54.1,214.5z"/>
	<path class="st0" d="M60.6,214.5c-0.1,0.1-0.3,0.1-0.5,0.1c-0.4,0-0.6-0.2-0.6-0.7c-0.4,0.5-1,0.7-1.6,0.7c-0.8,0-1.5-0.4-1.5-1.3
		c0-1.1,0.8-1.3,1.6-1.4c0.8-0.2,1.6-0.1,1.6-0.7c0-0.7-0.5-0.8-1-0.8c-0.6,0-1.1,0.2-1.2,0.9h-0.8c0-1.2,0.9-1.6,2-1.6
		c0.8,0,1.7,0.2,1.7,1.3v2.4c0,0.4,0,0.5,0.2,0.5c0.1,0,0.1,0,0.2,0V214.5z M59.4,212.1c-0.3,0.2-0.9,0.2-1.4,0.3
		c-0.5,0.1-0.9,0.3-0.9,0.8c0,0.5,0.4,0.7,0.9,0.7c1,0,1.4-0.6,1.4-1.1V212.1z"/>
	<path class="st0" d="M62.4,209.8h0.9v0.7h-0.9v2.9c0,0.4,0.1,0.4,0.6,0.4h0.4v0.7h-0.6c-0.8,0-1.1-0.2-1.1-1v-3h-0.8v-0.7h0.8v-1.4
		h0.8V209.8z"/>
	<path class="st0" d="M65,209h-0.8V208H65V209z M64.2,209.8H65v4.7h-0.8V209.8z"/>
	<path class="st0" d="M68.2,209.7c1.5,0,2.3,1.1,2.3,2.4c0,1.4-0.8,2.4-2.3,2.4c-1.5,0-2.3-1.1-2.3-2.4
		C65.9,210.8,66.7,209.7,68.2,209.7z M68.2,213.9c0.8,0,1.4-0.6,1.4-1.8c0-1.1-0.6-1.8-1.4-1.8s-1.4,0.6-1.4,1.8
		C66.7,213.3,67.4,213.9,68.2,213.9z"/>
	<path class="st0" d="M71.3,209.8h0.7v0.7h0c0.3-0.6,0.8-0.8,1.5-0.8c1.2,0,1.6,0.7,1.6,1.7v3.1h-0.8v-3.2c0-0.6-0.4-0.9-0.9-0.9
		c-0.9,0-1.4,0.6-1.4,1.5v2.6h-0.8V209.8z"/>
</g>
<g>
	<path class="st0" d="M39.1,219c-0.2-0.9-0.9-1.4-1.8-1.4c-1.5,0-2.2,1.3-2.2,2.6c0,1.5,0.6,2.7,2.2,2.7c1.1,0,1.8-0.8,1.9-1.9h0.9
		c-0.2,1.6-1.2,2.6-2.8,2.6c-2,0-3-1.5-3-3.3c0-1.9,1.1-3.4,3-3.4c1.3,0,2.4,0.7,2.6,2.1H39.1z"/>
	<path class="st0" d="M45,222c-0.2,1-0.9,1.6-2,1.6c-1.5,0-2.2-1-2.2-2.4c0-1.4,0.9-2.4,2.2-2.4c1.6,0,2.2,1.5,2.1,2.7h-3.5
		c0,0.8,0.4,1.5,1.4,1.5c0.6,0,1.1-0.3,1.2-0.9H45z M44.2,220.7c0-0.7-0.6-1.3-1.3-1.3c-0.8,0-1.3,0.6-1.3,1.3H44.2z"/>
	<path class="st0" d="M45.8,218.8h0.7v0.7h0c0.3-0.6,0.8-0.8,1.5-0.8c1.2,0,1.6,0.7,1.6,1.7v3.1h-0.8v-3.2c0-0.6-0.4-0.9-0.9-0.9
		c-0.9,0-1.4,0.6-1.4,1.5v2.6h-0.8V218.8z"/>
	<path class="st0" d="M51.9,218.8h0.9v0.7h-0.9v2.9c0,0.4,0.1,0.4,0.6,0.4h0.4v0.7h-0.6c-0.8,0-1.1-0.2-1.1-1v-3h-0.8v-0.7h0.8v-1.4
		h0.8V218.8z"/>
	<path class="st0" d="M57.6,222c-0.2,1-0.9,1.6-2,1.6c-1.5,0-2.2-1-2.2-2.4c0-1.4,0.9-2.4,2.2-2.4c1.6,0,2.2,1.5,2.1,2.7h-3.5
		c0,0.8,0.4,1.5,1.4,1.5c0.6,0,1.1-0.3,1.2-0.9H57.6z M56.9,220.7c0-0.7-0.6-1.3-1.3-1.3c-0.8,0-1.3,0.6-1.3,1.3H56.9z"/>
	<path class="st0" d="M58.5,218.8h0.7v1h0c0.4-0.7,0.9-1.1,1.7-1.1v0.8c-1.2,0-1.7,0.7-1.7,1.9v2.1h-0.8V218.8z"/>
</g>
<g>
	<path class="st0" d="M34.6,235h0.9v2.8h3.4V235h0.9v6.4h-0.9v-2.9h-3.4v2.9h-0.9V235z"/>
	<path class="st0" d="M45,240c-0.2,1-0.9,1.6-2,1.6c-1.5,0-2.2-1-2.2-2.4c0-1.4,0.9-2.4,2.2-2.4c1.6,0,2.2,1.5,2.1,2.7h-3.5
		c0,0.8,0.4,1.5,1.4,1.5c0.6,0,1.1-0.3,1.2-0.9H45z M44.2,238.7c0-0.7-0.6-1.3-1.3-1.3c-0.8,0-1.3,0.6-1.3,1.3H44.2z"/>
	<path class="st0" d="M49.9,241.5c-0.1,0.1-0.3,0.1-0.5,0.1c-0.4,0-0.6-0.2-0.6-0.7c-0.4,0.5-1,0.7-1.6,0.7c-0.8,0-1.5-0.4-1.5-1.3
		c0-1.1,0.8-1.3,1.6-1.4c0.8-0.2,1.6-0.1,1.6-0.7c0-0.7-0.5-0.8-1-0.8c-0.6,0-1.1,0.2-1.2,0.9h-0.8c0-1.2,0.9-1.6,2-1.6
		c0.8,0,1.7,0.2,1.7,1.3v2.4c0,0.4,0,0.5,0.2,0.5c0.1,0,0.1,0,0.2,0V241.5z M48.7,239.1c-0.3,0.2-0.9,0.2-1.4,0.3
		c-0.5,0.1-0.9,0.3-0.9,0.8c0,0.5,0.4,0.7,0.9,0.7c1,0,1.4-0.6,1.4-1.1V239.1z"/>
	<path class="st0" d="M54.8,241.5h-0.8v-0.6h0c-0.3,0.5-0.8,0.7-1.5,0.7c-1.4,0-2.1-1.1-2.1-2.4s0.7-2.4,2.1-2.4
		c0.5,0,1.2,0.2,1.5,0.7h0V235h0.8V241.5z M52.7,240.9c1,0,1.4-0.9,1.4-1.8c0-0.9-0.4-1.8-1.5-1.8c-1,0-1.4,0.9-1.4,1.8
		C51.2,240.1,51.7,240.9,52.7,240.9z"/>
</g>
<path class="st0" d="M37.3,243.9c2,0,3.1,1.6,3.1,3.4s-1,3.4-3.1,3.4s-3.1-1.6-3.1-3.4S35.3,243.9,37.3,243.9z M37.3,249.9
	c1.6,0,2.2-1.4,2.2-2.6s-0.7-2.6-2.2-2.6s-2.2,1.4-2.2,2.6S35.8,249.9,37.3,249.9z M41.6,246.5h-0.8v-0.7h0.8v-0.7
	c0-0.8,0.5-1.2,1.3-1.2c0.1,0,0.4,0,0.5,0.1v0.7c-0.1,0-0.3-0.1-0.4-0.1c-0.4,0-0.6,0.1-0.6,0.5v0.6h0.9v0.7h-0.9v4h-0.8V246.5z
	 M44.2,246.5h-0.8v-0.7h0.8v-0.7c0-0.8,0.5-1.2,1.3-1.2c0.1,0,0.4,0,0.5,0.1v0.7c-0.1,0-0.3-0.1-0.4-0.1c-0.4,0-0.6,0.1-0.6,0.5v0.6
	h0.9v0.7h-0.9v4h-0.8V246.5z M46.5,245V244h0.8v0.9H46.5z M46.5,250.5v-4.7h0.8v4.7H46.5z M51.7,247.3c-0.1-0.6-0.5-0.9-1.2-0.9
	c-1.1,0-1.4,0.9-1.4,1.8c0,0.9,0.4,1.7,1.4,1.7c0.7,0,1.2-0.4,1.3-1.1h0.8c-0.2,1.1-0.9,1.8-2.1,1.8c-1.4,0-2.2-1-2.2-2.4
	c0-1.4,0.7-2.5,2.2-2.5c1.1,0,1.9,0.5,2,1.6H51.7z M57.3,249c-0.2,1-0.9,1.6-2,1.6c-1.5,0-2.2-1-2.2-2.4c0-1.4,0.9-2.4,2.2-2.4
	c1.6,0,2.2,1.5,2.1,2.7h-3.5c0,0.8,0.4,1.5,1.4,1.5c0.6,0,1.1-0.3,1.2-0.9H57.3z M56.6,247.7c0-0.7-0.6-1.3-1.3-1.3
	c-0.8,0-1.3,0.6-1.3,1.3H56.6z"/>
<g>
	<path class="st0" d="M34.6,262h4.2v0.7h-3.4v2h3v0.7h-3v2.9h-0.9V262z"/>
	<path class="st0" d="M41.7,263.7c1.5,0,2.3,1.1,2.3,2.4c0,1.4-0.8,2.4-2.3,2.4c-1.5,0-2.3-1.1-2.3-2.4
		C39.4,264.8,40.2,263.7,41.7,263.7z M41.7,267.9c0.8,0,1.4-0.6,1.4-1.8c0-1.1-0.6-1.8-1.4-1.8c-0.8,0-1.4,0.6-1.4,1.8
		C40.2,267.3,40.9,267.9,41.7,267.9z"/>
	<path class="st0" d="M46.8,263.7c1.5,0,2.3,1.1,2.3,2.4c0,1.4-0.8,2.4-2.3,2.4c-1.5,0-2.3-1.1-2.3-2.4
		C44.6,264.8,45.4,263.7,46.8,263.7z M46.8,267.9c0.8,0,1.4-0.6,1.4-1.8c0-1.1-0.6-1.8-1.4-1.8c-0.8,0-1.4,0.6-1.4,1.8
		C45.4,267.3,46,267.9,46.8,267.9z"/>
	<path class="st0" d="M54.2,268.5h-0.8v-0.6h0c-0.3,0.5-0.8,0.7-1.5,0.7c-1.4,0-2.1-1.1-2.1-2.4s0.7-2.4,2.1-2.4
		c0.5,0,1.2,0.2,1.5,0.7h0V262h0.8V268.5z M52,267.9c1,0,1.4-0.9,1.4-1.8c0-0.9-0.4-1.8-1.5-1.8c-1,0-1.4,0.9-1.4,1.8
		C50.5,267.1,51,267.9,52,267.9z"/>
	<path class="st0" d="M55.8,267c0,0.7,0.6,0.9,1.3,0.9c0.5,0,1.1-0.1,1.1-0.7c0-0.6-0.8-0.7-1.5-0.9c-0.8-0.2-1.5-0.4-1.5-1.3
		c0-0.9,0.9-1.3,1.7-1.3c1,0,1.8,0.3,1.9,1.5H58c-0.1-0.6-0.6-0.8-1.1-0.8c-0.5,0-1,0.1-1,0.6c0,0.5,0.8,0.6,1.5,0.8
		c0.8,0.2,1.5,0.4,1.5,1.3c0,1.1-1,1.5-2,1.5c-1,0-1.9-0.4-2-1.6H55.8z"/>
</g>
<g>
	<path class="st0" d="M38.3,281.9c-0.1-0.9-0.7-1.3-1.6-1.3c-0.7,0-1.4,0.3-1.4,1.1c0,0.8,1,0.9,2.1,1.1c1,0.2,2.1,0.6,2.1,1.9
		c0,1.4-1.3,1.9-2.5,1.9c-1.4,0-2.7-0.7-2.7-2.3h0.8c0,1.1,0.9,1.5,1.9,1.5c0.8,0,1.6-0.2,1.6-1.2c0-0.9-1-1-2.1-1.3
		c-1-0.2-2.1-0.5-2.1-1.7c0-1.3,1.2-1.9,2.3-1.9c1.3,0,2.3,0.6,2.4,2H38.3z"/>
	<path class="st0" d="M42.3,281.7c1.5,0,2.3,1.1,2.3,2.4c0,1.4-0.8,2.4-2.3,2.4c-1.5,0-2.3-1.1-2.3-2.4
		C40.1,282.8,40.9,281.7,42.3,281.7z M42.3,285.9c0.8,0,1.4-0.6,1.4-1.8c0-1.1-0.6-1.8-1.4-1.8c-0.8,0-1.4,0.6-1.4,1.8
		C40.9,285.3,41.5,285.9,42.3,285.9z"/>
	<path class="st0" d="M47.3,287.1c-0.4,0.9-0.7,1.2-1.4,1.2c-0.2,0-0.4,0-0.5-0.1v-0.7c0.1,0,0.3,0.1,0.5,0.1c0.3,0,0.5-0.2,0.6-0.4
		l0.3-0.8l-1.8-4.6h0.9l1.4,3.8h0l1.3-3.8h0.8L47.3,287.1z"/>
</g>
<g>
	<path class="st0" d="M35.8,297.3c-0.9-1.4-1.4-2.6-1.4-4.2c0-1.4,0.5-2.9,1.4-4.2h0.6c-0.9,1.4-1.2,2.7-1.2,4.2
		c0,1.5,0.3,2.8,1.2,4.2H35.8z"/>
	<path class="st0" d="M40.8,295.1c0,1.5-0.7,2.3-2.2,2.3c-0.9,0-1.9-0.4-1.9-1.4h0.8c0,0.6,0.7,0.8,1.2,0.8c1,0,1.4-0.7,1.4-1.8
		v-0.3h0c-0.3,0.6-0.9,0.8-1.4,0.8c-1.4,0-2.1-1.1-2.1-2.4c0-1.1,0.5-2.5,2.2-2.5c0.6,0,1.1,0.3,1.4,0.8h0v-0.7h0.7V295.1z
		 M40.1,293.1c0-0.8-0.4-1.7-1.3-1.7c-1,0-1.4,0.8-1.4,1.7c0,0.8,0.3,1.8,1.3,1.8S40.1,293.9,40.1,293.1z"/>
	<path class="st0" d="M42,290.8h0.7v1h0c0.4-0.7,0.9-1.1,1.7-1.1v0.8c-1.2,0-1.7,0.7-1.7,1.9v2.1H42V290.8z"/>
	<path class="st0" d="M49.1,295.5c-0.1,0.1-0.3,0.1-0.5,0.1c-0.4,0-0.6-0.2-0.6-0.7c-0.4,0.5-1,0.7-1.6,0.7c-0.8,0-1.5-0.4-1.5-1.3
		c0-1.1,0.8-1.3,1.6-1.4c0.8-0.2,1.6-0.1,1.6-0.7c0-0.7-0.5-0.8-1-0.8c-0.6,0-1.1,0.2-1.2,0.9h-0.8c0-1.2,0.9-1.6,2-1.6
		c0.8,0,1.7,0.2,1.7,1.3v2.4c0,0.4,0,0.5,0.2,0.5c0.1,0,0.1,0,0.2,0V295.5z M47.9,293.1c-0.3,0.2-0.9,0.2-1.4,0.3
		c-0.5,0.1-0.9,0.3-0.9,0.8c0,0.5,0.4,0.7,0.9,0.7c1,0,1.4-0.6,1.4-1.1V293.1z"/>
	<path class="st0" d="M50.6,290h-0.8V289h0.8V290z M49.9,290.8h0.8v4.7h-0.8V290.8z"/>
	<path class="st0" d="M51.8,290.8h0.7v0.7h0c0.3-0.6,0.8-0.8,1.5-0.8c1.2,0,1.6,0.7,1.6,1.7v3.1h-0.8v-3.2c0-0.6-0.4-0.9-0.9-0.9
		c-0.9,0-1.4,0.6-1.4,1.5v2.6h-0.8V290.8z"/>
	<path class="st0" d="M57.3,294c0,0.7,0.6,0.9,1.3,0.9c0.5,0,1.1-0.1,1.1-0.7c0-0.6-0.8-0.7-1.5-0.9c-0.8-0.2-1.5-0.4-1.5-1.3
		c0-0.9,0.9-1.3,1.7-1.3c1,0,1.8,0.3,1.9,1.5h-0.8c-0.1-0.6-0.6-0.8-1.1-0.8c-0.5,0-1,0.1-1,0.6c0,0.5,0.8,0.6,1.5,0.8
		c0.8,0.2,1.5,0.4,1.5,1.3c0,1.1-1,1.5-2,1.5c-1,0-1.9-0.4-2-1.6H57.3z"/>
	<path class="st0" d="M60.7,297.3c0.9-1.4,1.2-2.7,1.2-4.2c0-1.5-0.3-2.8-1.2-4.2h0.6c0.9,1.4,1.4,2.6,1.4,4.2
		c0,1.4-0.5,2.9-1.4,4.2H60.7z"/>
</g>
<g>
	<path class="st0" d="M36.1,307.8h-2.1V307h5.1v0.7h-2.1v5.7h-0.9V307.8z"/>
	<path class="st0" d="M42.6,312c-0.2,1-0.9,1.6-2,1.6c-1.5,0-2.2-1-2.2-2.4c0-1.4,0.9-2.4,2.2-2.4c1.6,0,2.2,1.5,2.1,2.7h-3.5
		c0,0.8,0.4,1.5,1.4,1.5c0.6,0,1.1-0.3,1.2-0.9H42.6z M41.9,310.7c0-0.7-0.6-1.3-1.3-1.3c-0.8,0-1.3,0.6-1.3,1.3H41.9z"/>
	<path class="st0" d="M43.5,308.8h0.7v1h0c0.4-0.7,0.9-1.1,1.7-1.1v0.8c-1.2,0-1.7,0.7-1.7,1.9v2.1h-0.8V308.8z"/>
	<path class="st0" d="M46.5,308.8h0.7v0.7h0c0.3-0.5,0.9-0.8,1.5-0.8c0.6,0,1.1,0.2,1.3,0.8c0.3-0.5,0.9-0.8,1.5-0.8
		c0.9,0,1.5,0.4,1.5,1.4v3.4h-0.8v-3.1c0-0.6-0.2-1-0.9-1c-0.7,0-1.2,0.5-1.2,1.2v2.9h-0.8v-3.1c0-0.6-0.2-1-0.9-1
		c-0.9,0-1.2,0.8-1.2,1.2v2.9h-0.8V308.8z"/>
	<path class="st0" d="M55,308h-0.8V307H55V308z M54.2,308.8H55v4.7h-0.8V308.8z"/>
	<path class="st0" d="M56.2,308.8h0.7v0.7h0c0.3-0.6,0.8-0.8,1.5-0.8c1.2,0,1.6,0.7,1.6,1.7v3.1h-0.8v-3.2c0-0.6-0.4-0.9-0.9-0.9
		c-0.9,0-1.4,0.6-1.4,1.5v2.6h-0.8V308.8z"/>
	<path class="st0" d="M65.3,313.5c-0.1,0.1-0.3,0.1-0.5,0.1c-0.4,0-0.6-0.2-0.6-0.7c-0.4,0.5-1,0.7-1.6,0.7c-0.8,0-1.5-0.4-1.5-1.3
		c0-1.1,0.8-1.3,1.6-1.4c0.8-0.2,1.6-0.1,1.6-0.7c0-0.7-0.5-0.8-1-0.8c-0.6,0-1.1,0.2-1.2,0.9h-0.8c0-1.2,0.9-1.6,2-1.6
		c0.8,0,1.7,0.2,1.7,1.3v2.4c0,0.4,0,0.5,0.2,0.5c0.1,0,0.1,0,0.2,0V313.5z M64.1,311.1c-0.3,0.2-0.9,0.2-1.4,0.3
		c-0.5,0.1-0.9,0.3-0.9,0.8c0,0.5,0.4,0.7,0.9,0.7c1,0,1.4-0.6,1.4-1.1V311.1z"/>
	<path class="st0" d="M66.1,307h0.8v6.4h-0.8V307z"/>
	<path class="st0" d="M69.9,310.6h4.5v0.7h-4.5V310.6z"/>
</g>
<g>
	<path class="st0" d="M35,321c0,0.7,0.6,0.9,1.3,0.9c0.5,0,1.1-0.1,1.1-0.7c0-0.6-0.8-0.7-1.5-0.9c-0.8-0.2-1.5-0.4-1.5-1.3
		c0-0.9,0.9-1.3,1.7-1.3c1,0,1.8,0.3,1.9,1.5h-0.8c-0.1-0.6-0.6-0.8-1.1-0.8c-0.5,0-1,0.1-1,0.6c0,0.5,0.8,0.6,1.5,0.8
		c0.8,0.2,1.5,0.4,1.5,1.3c0,1.1-1,1.5-2,1.5c-1,0-1.9-0.4-2-1.6H35z"/>
	<path class="st0" d="M42.8,322.5h-0.7v-0.7h0c-0.3,0.6-0.8,0.8-1.5,0.8c-1.2,0-1.6-0.7-1.6-1.7v-3.1h0.8v3.2c0,0.6,0.4,0.9,0.9,0.9
		c0.9,0,1.4-0.6,1.4-1.5v-2.6h0.8V322.5z"/>
	<path class="st0" d="M48,322.1c0,1.5-0.7,2.3-2.2,2.3c-0.9,0-1.9-0.4-1.9-1.4h0.8c0,0.6,0.7,0.8,1.2,0.8c1,0,1.4-0.7,1.4-1.8v-0.3
		h0c-0.3,0.6-0.9,0.8-1.4,0.8c-1.4,0-2.1-1.1-2.1-2.4c0-1.1,0.5-2.5,2.2-2.5c0.6,0,1.1,0.3,1.4,0.8h0v-0.7H48V322.1z M47.3,320.1
		c0-0.8-0.4-1.7-1.3-1.7c-1,0-1.4,0.8-1.4,1.7c0,0.8,0.3,1.8,1.3,1.8S47.3,320.9,47.3,320.1z"/>
	<path class="st0" d="M53.3,322.5c-0.1,0.1-0.3,0.1-0.5,0.1c-0.4,0-0.6-0.2-0.6-0.7c-0.4,0.5-1,0.7-1.6,0.7c-0.8,0-1.5-0.4-1.5-1.3
		c0-1.1,0.8-1.3,1.6-1.4c0.8-0.2,1.6-0.1,1.6-0.7c0-0.7-0.5-0.8-1-0.8c-0.6,0-1.1,0.2-1.2,0.9h-0.8c0-1.2,0.9-1.6,2-1.6
		c0.8,0,1.7,0.2,1.7,1.3v2.4c0,0.4,0,0.5,0.2,0.5c0.1,0,0.1,0,0.2,0V322.5z M52,320.1c-0.3,0.2-0.9,0.2-1.4,0.3
		c-0.5,0.1-0.9,0.3-0.9,0.8c0,0.5,0.4,0.7,0.9,0.7c1,0,1.4-0.6,1.4-1.1V320.1z"/>
	<path class="st0" d="M54,317.8h0.7v1h0c0.4-0.7,0.9-1.1,1.7-1.1v0.8c-1.2,0-1.7,0.7-1.7,1.9v2.1H54V317.8z"/>
</g>
<g>
	<path class="st0" d="M36.1,334.8h-2.1V334h5.1v0.7h-2.1v5.7h-0.9V334.8z"/>
	<path class="st0" d="M42.6,339c-0.2,1-0.9,1.6-2,1.6c-1.5,0-2.2-1-2.2-2.4c0-1.4,0.9-2.4,2.2-2.4c1.6,0,2.2,1.5,2.1,2.7h-3.5
		c0,0.8,0.4,1.5,1.4,1.5c0.6,0,1.1-0.3,1.2-0.9H42.6z M41.9,337.7c0-0.7-0.6-1.3-1.3-1.3c-0.8,0-1.3,0.6-1.3,1.3H41.9z"/>
	<path class="st0" d="M43.5,335.8h0.7v1h0c0.4-0.7,0.9-1.1,1.7-1.1v0.8c-1.2,0-1.7,0.7-1.7,1.9v2.1h-0.8V335.8z"/>
	<path class="st0" d="M46.5,335.8h0.7v0.7h0c0.3-0.5,0.9-0.8,1.5-0.8c0.6,0,1.1,0.2,1.3,0.8c0.3-0.5,0.9-0.8,1.5-0.8
		c0.9,0,1.5,0.4,1.5,1.4v3.4h-0.8v-3.1c0-0.6-0.2-1-0.9-1c-0.7,0-1.2,0.5-1.2,1.2v2.9h-0.8v-3.1c0-0.6-0.2-1-0.9-1
		c-0.9,0-1.2,0.8-1.2,1.2v2.9h-0.8V335.8z"/>
	<path class="st0" d="M55,335h-0.8V334H55V335z M54.2,335.8H55v4.7h-0.8V335.8z"/>
	<path class="st0" d="M56.2,335.8h0.7v0.7h0c0.3-0.6,0.8-0.8,1.5-0.8c1.2,0,1.6,0.7,1.6,1.7v3.1h-0.8v-3.2c0-0.6-0.4-0.9-0.9-0.9
		c-0.9,0-1.4,0.6-1.4,1.5v2.6h-0.8V335.8z"/>
	<path class="st0" d="M65.3,340.5c-0.1,0.1-0.3,0.1-0.5,0.1c-0.4,0-0.6-0.2-0.6-0.7c-0.4,0.5-1,0.7-1.6,0.7c-0.8,0-1.5-0.4-1.5-1.3
		c0-1.1,0.8-1.3,1.6-1.4c0.8-0.2,1.6-0.1,1.6-0.7c0-0.7-0.5-0.8-1-0.8c-0.6,0-1.1,0.2-1.2,0.9h-0.8c0-1.2,0.9-1.6,2-1.6
		c0.8,0,1.7,0.2,1.7,1.3v2.4c0,0.4,0,0.5,0.2,0.5c0.1,0,0.1,0,0.2,0V340.5z M64.1,338.1c-0.3,0.2-0.9,0.2-1.4,0.3
		c-0.5,0.1-0.9,0.3-0.9,0.8c0,0.5,0.4,0.7,0.9,0.7c1,0,1.4-0.6,1.4-1.1V338.1z"/>
	<path class="st0" d="M66.1,334h0.8v6.4h-0.8V334z"/>
	<path class="st0" d="M69.9,337.6h4.5v0.7h-4.5V337.6z"/>
</g>
<g>
	<path class="st0" d="M38.5,349.1c0,1.5-0.7,2.3-2.2,2.3c-0.9,0-1.9-0.4-1.9-1.4h0.8c0,0.6,0.7,0.8,1.2,0.8c1,0,1.4-0.7,1.4-1.8
		v-0.3h0c-0.3,0.6-0.9,0.8-1.4,0.8c-1.4,0-2.1-1.1-2.1-2.4c0-1.1,0.5-2.5,2.2-2.5c0.6,0,1.1,0.3,1.4,0.8h0v-0.7h0.7V349.1z
		 M37.8,347.1c0-0.8-0.4-1.7-1.3-1.7c-1,0-1.4,0.8-1.4,1.7c0,0.8,0.3,1.8,1.3,1.8S37.8,347.9,37.8,347.1z"/>
	<path class="st0" d="M39.6,344.8h0.7v1h0c0.4-0.7,0.9-1.1,1.7-1.1v0.8c-1.2,0-1.7,0.7-1.7,1.9v2.1h-0.8V344.8z"/>
	<path class="st0" d="M46.8,349.5c-0.1,0.1-0.3,0.1-0.5,0.1c-0.4,0-0.6-0.2-0.6-0.7c-0.4,0.5-1,0.7-1.6,0.7c-0.8,0-1.5-0.4-1.5-1.3
		c0-1.1,0.8-1.3,1.6-1.4c0.8-0.2,1.6-0.1,1.6-0.7c0-0.7-0.5-0.8-1-0.8c-0.6,0-1.1,0.2-1.2,0.9h-0.8c0-1.2,0.9-1.6,2-1.6
		c0.8,0,1.7,0.2,1.7,1.3v2.4c0,0.4,0,0.5,0.2,0.5c0.1,0,0.1,0,0.2,0V349.5z M45.5,347.1c-0.3,0.2-0.9,0.2-1.4,0.3
		c-0.5,0.1-0.9,0.3-0.9,0.8c0,0.5,0.4,0.7,0.9,0.7c1,0,1.4-0.6,1.4-1.1V347.1z"/>
	<path class="st0" d="M48.3,344h-0.8V343h0.8V344z M47.5,344.8h0.8v4.7h-0.8V344.8z"/>
	<path class="st0" d="M49.5,344.8h0.7v0.7h0c0.3-0.6,0.8-0.8,1.5-0.8c1.2,0,1.6,0.7,1.6,1.7v3.1h-0.8v-3.2c0-0.6-0.4-0.9-0.9-0.9
		c-0.9,0-1.4,0.6-1.4,1.5v2.6h-0.8V344.8z"/>
	<path class="st0" d="M55,348c0,0.7,0.6,0.9,1.3,0.9c0.5,0,1.1-0.1,1.1-0.7c0-0.6-0.8-0.7-1.5-0.9c-0.8-0.2-1.5-0.4-1.5-1.3
		c0-0.9,0.9-1.3,1.7-1.3c1,0,1.8,0.3,1.9,1.5h-0.8c-0.1-0.6-0.6-0.8-1.1-0.8c-0.5,0-1,0.1-1,0.6c0,0.5,0.8,0.6,1.5,0.8
		c0.8,0.2,1.5,0.4,1.5,1.3c0,1.1-1,1.5-2,1.5c-1,0-1.9-0.4-2-1.6H55z"/>
</g>
<path class="st1" d="M19,251.4c4.5,0,8.2-3.7,8.2-8.2s-3.7-8.2-8.2-8.2c-4.5,0-8.2,3.7-8.2,8.2S14.5,251.4,19,251.4"/>
<path class="st2" d="M22.9,241.9h-0.7v-0.7h0.7V241.9z M22.9,243.1h-0.7v-0.7h0.7V243.1z M22.9,244.4h-0.7v-0.7h0.7V244.4z
	 M21.6,241.9h-0.7v-0.7h0.7V241.9z M21.6,243.1h-0.7v-0.7h0.7V243.1z M21.6,244.4h-0.7v-0.7h0.7V244.4z M23.5,240.5h-3.1v6h3.1
	V240.5z"/>
<path class="st2" d="M16.2,240.7h-0.9v-0.9h0.9V240.7z M16.2,242.3h-0.9v-0.9h0.9V242.3z M16.2,243.8h-0.9v-0.9h0.9V243.8z
	 M16.9,242.9h0.9v0.9h-0.9V242.9z M16.9,241.4h0.9v0.9h-0.9V241.4z M16.9,239.8h0.9v0.9h-0.9V239.8z M18.4,242.9h0.9v0.9h-0.9V242.9
	z M18.4,241.4h0.9v0.9h-0.9V241.4z M18.4,239.8h0.9v0.9h-0.9V239.8z M16.8,245.1h1.1v1.5H20V239h-5.4v7.5h2.2V245.1z"/>
<rect x="13.5" y="246.9" class="st2" width="11.1" height="0.4"/>
<path class="st3" d="M19.1,224c4.5,0,8.2-3.7,8.2-8.2c0-4.5-3.7-8.2-8.2-8.2s-8.2,3.7-8.2,8.2C10.8,220.3,14.5,224,19.1,224"/>
<path class="st2" d="M20.7,219c-0.1,0-0.3-0.1-0.3-0.3c0-0.2,0.1-0.3,0.3-0.3c0.1,0,0.3,0.1,0.3,0.3C21,218.9,20.9,219,20.7,219
	 M20,218.5c-0.1,0-0.3-0.1-0.3-0.3s0.1-0.3,0.3-0.3c0.1,0,0.3,0.1,0.3,0.3S20.1,218.5,20,218.5 M20,219.5c-0.1,0-0.1-0.1-0.1-0.1
	s0.1-0.1,0.1-0.1c0.1,0,0.1,0.1,0.1,0.1S20,219.5,20,219.5 M19.5,217.4c0-0.2,0.1-0.3,0.3-0.3c0.1,0,0.3,0.1,0.3,0.3
	c0,0.2-0.1,0.3-0.3,0.3C19.7,217.7,19.5,217.6,19.5,217.4 M19.3,218.2c-0.1,0-0.1-0.1-0.1-0.1c0-0.1,0.1-0.1,0.1-0.1
	c0.1,0,0.1,0.1,0.1,0.1C19.5,218.2,19.4,218.2,19.3,218.2 M19.2,219.5c-0.1,0-0.1-0.1-0.1-0.1s0.1-0.1,0.1-0.1
	c0.1,0,0.1,0.1,0.1,0.1S19.2,219.5,19.2,219.5 M18.9,218.6c0-0.1,0.1-0.1,0.1-0.1c0.1,0,0.1,0.1,0.1,0.1c0,0.1-0.1,0.1-0.1,0.1
	C19,218.7,18.9,218.6,18.9,218.6 M17.5,217.4l-0.8,2.2c-0.1,0.1-0.2,0.2-0.3,0.2l0,0c-0.1,0-0.1-0.2-0.1-0.3l0.8-2.2
	c0.1-0.1,0.2-0.2,0.3-0.2l0,0C17.5,217.1,17.6,217.2,17.5,217.4 M17.6,215.6L17.6,215.6l0-3.9c0-0.1,0.1-0.3,0.2-0.3h2.3
	c0.1,0,0.2,0.1,0.2,0.3v3.9h0l0.3,0.9h-3.4L17.6,215.6z M22.8,219.8L22.8,219.8l-1.9-4.5h0v-3.9c0,0,0,0,0,0h0
	c0.1,0,0.2-0.1,0.2-0.2v-0.3c0-0.1-0.1-0.2-0.2-0.2h-3.8c-0.1,0-0.2,0.1-0.2,0.2v0.3c0,0.1,0.1,0.2,0.2,0.2h0c0,0,0,0,0,0v3.9h0
	l-1.9,4.5h0c-0.2,0-0.3,0.2-0.3,0.3v0.3c0,0.2,0.1,0.3,0.3,0.3h7.6c0.2,0,0.3-0.2,0.3-0.3v-0.3C23.1,220,23,219.8,22.8,219.8"/>
<path class="st4" d="M19.6,273.8c4.8,0,8.8-3.9,8.8-8.8c0-4.8-3.9-8.8-8.8-8.8s-8.8,3.9-8.8,8.8C10.8,269.9,14.7,273.8,19.6,273.8"
	/>
<path class="st2" d="M22.3,258.7c1.3,0.1,1.3,1.9,1.3,1.9c0,1-1,1.9-1.2,2.2c-0.3,0.6,0.2,7.8,0,8.3c0,0-0.1,0.3-0.5,0.3
	c-0.4,0-0.6-0.3-0.6-0.3c0-0.7,0.1-2.4,0.3-4.2c0.2-2,0.3-3.9,0.1-4.1c-0.1-0.5-1-1.1-0.9-2.3C20.9,260.3,21,258.6,22.3,258.7"/>
<path class="st2" d="M18.7,271.1c0,0,0.1,0.3,0.5,0.3c0.4,0,0.6-0.4,0.6-0.4s-0.5-6.4-0.5-6.7c0.1-0.2,0.1-0.3,0.1-0.4
	c0.1-0.1,0.4-0.1,0.5-0.5c0.1-0.4,0-1-0.1-2.4c-0.2-1.3-0.7-2.1-0.7-2.1s-0.1-0.2-0.3-0.2c-0.2,0-0.2,0.2-0.2,0.2L18.7,271.1z"/>
<path class="st2" d="M16,271.1c0,0,0.1,0.3,0.5,0.3c0.5,0,0.6-0.4,0.6-0.4c0.1-0.2-0.4-7.9-0.4-7.9s0-0.2,0.2-0.4
	c0.2-0.2,0.3-0.2,0.4-0.3c0.1-0.1,0.1-0.4,0.1-0.7c0-0.3,0-3.1-0.1-3.1c-0.1,0-0.2,2.6-0.4,2.6c-0.2,0,0-2.6-0.1-2.6
	c-0.1,0-0.2,2.5-0.3,2.6c-0.2,0.1-0.1-2.6-0.2-2.6c-0.1,0-0.1,2.6-0.3,2.6c-0.2,0-0.1-2.6-0.2-2.6c-0.1,0-0.2,2.9-0.2,3.2
	c0,0.2,0,0.5,0.1,0.6c0.1,0.1,0.2,0.1,0.4,0.3c0.2,0.2,0.3,0.4,0.3,0.4S16,270.9,16,271.1"/>
<path class="st5" d="M19.6,297.4c4.8,0,8.8-3.9,8.8-8.8c0-4.8-3.9-8.8-8.8-8.8s-8.8,3.9-8.8,8.8C10.8,293.5,14.7,297.4,19.6,297.4"
	/>
<path class="st2" d="M22.5,290.5c0.3-0.2,0.6-0.4,1-0.6c-0.1-0.2-0.2-0.4-0.4-0.5c0-0.3-0.3-0.6-0.6-0.6c-0.1,0-0.2,0-0.3,0.1
	c0,0,0,0,0,0c-0.1-0.2-0.3-0.3-0.5-0.3c-0.2,0.5-0.5,0.9-1,1.2c0.2-0.2,0.4-0.5,0.5-0.8c0.2-0.8-0.3-2.4,0.9-3.1
	c0.5-0.3,1.1-0.7,1.6-1c-1.3,1.1-1.9,1.7-1.9,2.2c1.2,0,2.5-0.8,3.4-3.2c-3.4,0.1-4,1-4.4,3.3c-0.4-1.1-1.1-2-3.7-2.4
	c0.5,1.9,1.4,2.9,2.9,2.9c0,0,0.1,0,0.1,0c0.1-0.7-1.1-1.4-1.8-1.8c2,0.7,2.5,1.3,2.1,2.8h0c-0.1-0.1-0.2-0.1-0.3-0.1
	c-0.2,0-0.4,0.1-0.5,0.3c-0.1,0-0.1,0-0.2,0c-0.2,0-0.4,0.2-0.5,0.5c-0.2,0.1-0.3,0.3-0.4,0.4c1.9,0.2,3.5,0.5,3.6,0.5
	C22.3,290.3,22.4,290.4,22.5,290.5"/>
<path class="st2" d="M24.7,291.1c0.2-0.7,0.1-0.9,0.1-1c0,0-0.1-0.1-0.2-0.1c-0.1,0-0.1,0-0.2,0c-0.5,0.1-1.4,0.7-1.7,0.9
	c0,0,0,0-0.1,0v0c0,0.2,0,0.6-0.1,0.8c-0.2,0.3-0.7,0.4-1.3,0.4c-0.8,0-1.6-0.1-1.9-0.3c-0.1,0-0.1-0.1-0.2-0.1l-0.6-0.2l0.6,0
	c0.3,0,0.7,0,1.1,0c0.8,0,1.6,0,1.6,0c0.1,0,0.2-0.2,0.2-0.4c0-0.2,0-0.5-0.3-0.5c-0.1,0-3.7-0.6-6.2-0.6c-0.8,0-1.5,0.1-1.9,0.2
	v2.5c0,0,0.1,0,0.2-0.1c1-0.3,1.6-0.5,1.8-0.5c0,0,0,0,0,0c0.5,0.2,3.9,1.2,4.3,1.2C21.1,293.4,24.5,292,24.7,291.1"/>
<path class="st6" d="M19.6,107.5c4.8,0,8.8-3.9,8.8-8.8c0-4.8-3.9-8.8-8.8-8.8c-4.8,0-8.8,3.9-8.8,8.8
	C10.8,103.5,14.7,107.5,19.6,107.5"/>
<path class="st2" d="M17.5,98.9v4.1H17v-4.1C17.1,98.9,17.4,98.9,17.5,98.9 M22.7,98.4c-1.1,0.9-2.3,0.6-3.5,0.2
	c-0.9-0.3-1.8-0.6-2.7-0.3v5.4h6.2V98.4z M19.3,95.5H18v1.3h1.3V95.5z M21.1,95.5h-1.3v1.3h1.3V95.5z M16.5,95.5h1.1v1.3h-1.1V95.5z
	 M17.6,97.5c-0.4,0-0.7,0-1.1,0.1v-0.3h1.1V97.5z M19.3,97.9c-0.4-0.1-0.8-0.3-1.3-0.3v-0.3h1.3V97.9z M21.1,98.3
	c-0.4,0-0.8-0.1-1.3-0.2v-0.8h1.3v0.4V98.3z M22.7,97.2v0.2c-0.3,0.4-0.7,0.6-1.1,0.7v-0.5v-0.4H22.7z M22.7,96.8h-1.1v-1.3h1.1
	V96.8z M21.6,93.7h1.1V95h-1.1V93.7z M19.8,93.7h1.3V95h-1.3V93.7z M18,93.7h1.3V95H18V93.7z M16.5,93.7h1.1V95h-1.1V93.7z"/>
<path class="st7" d="M19.6,53.3c4.8,0,8.8-3.9,8.8-8.8c0-4.8-3.9-8.8-8.8-8.8c-4.8,0-8.8,3.9-8.8,8.8C10.8,49.4,14.7,53.3,19.6,53.3
	"/>
<path class="st2" d="M19.3,42.4l0.3-0.2c0.2-0.1,0.2-0.3,0.1-0.5l-0.1-0.2c-0.1-0.2-0.3-0.2-0.5-0.1l-0.3,0.2
	c-0.2,0.1-0.2,0.3-0.1,0.5l0.1,0.2C18.9,42.5,19.2,42.6,19.3,42.4"/>
<path class="st2" d="M19.7,42.3l-0.3,0.2c-0.2,0.1-0.2,0.3-0.1,0.5l0.2,0.2c0.1,0.2,0.3,0.2,0.5,0.1l0.3-0.2
	c0.2-0.1,0.2-0.3,0.1-0.5l-0.2-0.2C20.1,42.3,19.9,42.2,19.7,42.3"/>
<path class="st2" d="M18.7,41.6l0.2-0.1c0.2-0.1,0.2-0.3,0.1-0.5l-0.1-0.1c-0.1-0.2-0.3-0.2-0.5-0.1l-0.2,0.1
	C18,41,18,41.2,18.1,41.4l0.1,0.1C18.3,41.7,18.5,41.7,18.7,41.6"/>
<path class="st2" d="M20.1,44.9l-0.4,0.3c-0.2,0.1-0.2,0.3-0.1,0.5l0.2,0.2c0.1,0.2,0.3,0.2,0.5,0.1l0.4-0.3
	c0.2-0.1,0.2-0.3,0.1-0.5L20.6,45C20.5,44.8,20.2,44.8,20.1,44.9"/>
<path class="st2" d="M16.5,40.7l0.2-0.2c0.1-0.1,0.2-0.3,0.1-0.4l-0.1-0.1c-0.1-0.1-0.3-0.2-0.4-0.1l-0.2,0.2
	c-0.1,0.1-0.2,0.3-0.1,0.4l0.1,0.1C16.2,40.7,16.4,40.8,16.5,40.7"/>
<path class="st2" d="M20.8,45.8l-0.4,0.3c-0.2,0.1-0.2,0.3-0.1,0.5l0.2,0.2c0.1,0.2,0.3,0.2,0.5,0.1l0.4-0.3
	c0.2-0.1,0.2-0.3,0.1-0.5l-0.2-0.2C21.1,45.8,20.9,45.7,20.8,45.8"/>
<path class="st2" d="M18.1,40.7L18.1,40.7c0.2-0.1,0.2-0.3,0.1-0.5l-0.1-0.1c-0.1-0.2-0.3-0.2-0.5-0.1l0,0c-0.2,0.1-0.2,0.3-0.1,0.5
	l0.1,0.1C17.7,40.8,17.9,40.8,18.1,40.7"/>
<path class="st2" d="M17.1,42.9l-0.3,0.2c-0.2,0.1-0.2,0.3-0.1,0.5l0.1,0.2c0.1,0.2,0.3,0.2,0.5,0.1l0.3-0.2
	c0.2-0.1,0.2-0.3,0.1-0.5L17.6,43C17.4,42.9,17.2,42.8,17.1,42.9"/>
<path class="st2" d="M17.1,41.5l0.3-0.2c0.2-0.1,0.2-0.3,0.1-0.5l-0.1-0.1c-0.1-0.2-0.3-0.2-0.5-0.1l-0.3,0.2
	c-0.2,0.1-0.2,0.3-0.1,0.5l0.1,0.1C16.7,41.5,16.9,41.6,17.1,41.5"/>
<path class="st2" d="M15.9,41.3L15.9,41.3c-0.2,0.1-0.2,0.3-0.1,0.5l0.1,0.1c0.1,0.2,0.3,0.2,0.5,0.1l0,0c0.2-0.1,0.2-0.3,0.1-0.5
	l-0.1-0.1C16.3,41.2,16,41.2,15.9,41.3"/>
<path class="st2" d="M17.7,43.8l-0.3,0.2c-0.2,0.1-0.2,0.3-0.1,0.5l0.2,0.2c0.1,0.2,0.3,0.2,0.5,0.1l0.3-0.2
	c0.2-0.1,0.2-0.3,0.1-0.5l-0.2-0.2C18,43.8,17.8,43.7,17.7,43.8"/>
<path class="st2" d="M16.5,42.1l-0.2,0.1c-0.2,0.1-0.2,0.3-0.1,0.5l0.1,0.1c0.1,0.2,0.3,0.2,0.5,0.1l0.2-0.1
	c0.2-0.1,0.2-0.3,0.1-0.5L17,42.2C16.8,42,16.6,42,16.5,42.1"/>
<path class="st2" d="M19.6,45l0.4-0.3c0.2-0.1,0.2-0.3,0.1-0.5l-0.2-0.2c-0.1-0.2-0.3-0.2-0.5-0.1L19,44.3c-0.2,0.1-0.2,0.3-0.1,0.5
	l0.2,0.2C19.2,45.1,19.5,45.2,19.6,45"/>
<path class="st2" d="M18.1,42.2l-0.3,0.2c-0.2,0.1-0.2,0.3-0.1,0.5l0.1,0.2c0.1,0.2,0.3,0.2,0.5,0.1l0.3-0.2
	c0.2-0.1,0.2-0.3,0.1-0.5l-0.1-0.2C18.4,42.1,18.2,42.1,18.1,42.2"/>
<path class="st2" d="M17.7,42.3l0.3-0.2c0.2-0.1,0.2-0.3,0.1-0.5l-0.1-0.1c-0.1-0.2-0.3-0.2-0.5-0.1l-0.3,0.2
	c-0.2,0.1-0.2,0.3-0.1,0.5l0.1,0.1C17.3,42.4,17.5,42.4,17.7,42.3"/>
<path class="st2" d="M19,44.1l0.3-0.2c0.2-0.1,0.2-0.3,0.1-0.5l-0.2-0.2c-0.1-0.2-0.3-0.2-0.5-0.1l-0.3,0.2
	c-0.2,0.1-0.2,0.3-0.1,0.5l0.2,0.2C18.6,44.2,18.8,44.2,19,44.1"/>
<path class="st2" d="M20.1,43.9l0.2,0.2c0.1,0.1,0.1,0.1,0.2,0.1c-0.1-0.3-0.2-0.6-0.3-0.9l0,0C20,43.5,20,43.8,20.1,43.9"/>
<path class="st2" d="M18.3,44.8L18.3,44.8c0.2,0.2,0.5,0.3,0.7,0.5c0-0.1,0-0.2-0.1-0.2l-0.2-0.2C18.7,44.7,18.4,44.7,18.3,44.8"/>
<path class="st2" d="M21.3,45c1.1,1.6,0.6,2.1,0.3,2.3c-0.3,0.2-1,0.6-2.1-1c-1.4-1.9-2.9-1.4-3.5-1l0,0.1c0.7-0.1,1.9,0.7,2.2,1.1
	c1,1.4,2.1,3,3.9,1.7c0,0,0.1-0.1,0.1-0.1c1.8-1.3,0.6-2.8-0.4-4.2c-0.4-0.5-0.7-1.8-0.4-2.5l0-0.1C20.9,41.9,19.9,43.2,21.3,45"/>
<path class="st8" d="M19.6,166.4c4.8,0,8.8-3.9,8.8-8.8c0-4.8-3.9-8.8-8.8-8.8c-4.8,0-8.8,3.9-8.8,8.8
	C10.8,162.5,14.7,166.4,19.6,166.4"/>
<rect x="15.5" y="153.3" class="st2" width="8.1" height="1.4"/>
<path class="st2" d="M17.1,158.1H22v0.2h-4.9V158.1z M17.3,156h1.1v1.5h-1.1V156z M19,156h1.1v1.5H19V156z M20.8,156h1.1v1.5h-1.1
	V156z M21.9,160.4h-1.1v-1.5h1.1V160.4z M20.1,160.4H19v-1.5h1.1V160.4z M18.4,160.4h-1.1v-1.5h1.1V160.4z M22.9,155.1h-6.7v6.2h6.7
	V155.1z"/>
<rect x="15.3" y="161.6" class="st2" width="8.4" height="0.4"/>
<path class="st9" d="M19.5,80.9c4.8,0,8.7-3.9,8.7-8.7s-3.9-8.7-8.7-8.7c-4.8,0-8.7,3.9-8.7,8.7S14.7,80.9,19.5,80.9"/>
<path class="st2" d="M21,70.2c0,0.2-0.2,0.4-0.4,0.4h-3.7c-0.2,0-0.4-0.2-0.4-0.4v-2.5c0-0.2,0.2-0.4,0.4-0.4h3.7
	c0.2,0,0.4,0.2,0.4,0.4V70.2z M24.7,72.9c-0.4-1.1-0.8-3-0.8-3.1c0,0,0.2-0.7,0.1-1.1c-0.1-0.4-0.4-0.7-0.6-1
	c-0.1-0.2-1.1-0.8-1.1-0.8l-0.1,0.1l0.7,0.9c0,0-0.3,0.2-0.2,0.5c0.1,0.3,0.2,0.8,0.5,0.9c0.1,0.2,0.1,0.6,0.1,0.6
	c0,0.5,0.5,2.1,0.9,3.2c0.2,0.6,0.3,1.2,0.1,1.5c-0.1,0.2-0.3,0.4-0.6,0.5c-0.5,0.1-0.8,0-1-0.2c-0.3-0.2-0.4-0.5-0.4-0.8
	c0-0.2,0.1-0.5,0.2-0.8c0.2-0.6,0.5-1.3,0.2-1.8c-0.1-0.2-0.4-0.4-0.7-0.4c-0.2,0-0.3,0-0.5,0v-3.8c0-0.2-0.2-0.4-0.4-0.4h-4.8
	c-0.2,0-0.4,0.2-0.4,0.4v8.3c0,0.2,0.2,0.4,0.4,0.4h4.8c0.2,0,0.4-0.2,0.4-0.4v-3.8c0.1,0,0.3,0,0.4,0c0.2,0,0.3,0.1,0.3,0.1
	c0.1,0.2-0.1,0.8-0.3,1.3c-0.1,0.4-0.3,0.8-0.3,1c0,0.5,0.2,0.9,0.7,1.3c0.3,0.2,0.6,0.3,1,0.3c0.2,0,0.3,0,0.5-0.1
	c0.5-0.1,0.8-0.4,1-0.8C25.1,74.4,25.1,73.7,24.7,72.9 M21.7,76.4h-5.9c-0.1,0-0.2,0.1-0.2,0.2V77c0,0.1,0.1,0.2,0.2,0.2h5.9
	c0.1,0,0.2-0.1,0.2-0.2v-0.5C21.8,76.5,21.8,76.4,21.7,76.4"/>
<path class="st10" d="M28.3,188.5c0,4.8-3.9,8.8-8.8,8.8s-8.8-3.9-8.8-8.8c0-4.8,3.9-8.8,8.8-8.8S28.3,183.6,28.3,188.5"/>
<path class="st2" d="M20.3,192.3v-0.5c0-0.1,0.6-0.6,0.6-0.8v-6.5c0-0.2-0.6-1-0.6-1.1v-0.4c0,0-5,0-5,0v0.4c0,0.1-0.6,0.9-0.6,1.1
	v6.5c0,0.3,0.6,0.8,0.6,0.8v0.5H20.3z"/>
<path class="st11" d="M20.3,192.2v-0.5c0-0.1,0.6-0.6,0.6-0.8v-6.5c0-0.2-0.6-1-0.6-1.1v-0.4c0,0-5,0-5,0v0.4c0,0.1-0.6,0.9-0.6,1.1
	v6.5c0,0.3,0.6,0.8,0.6,0.8v0.5H20.3z"/>
<path class="st2" d="M15.3,183.4c0,0,0.3,0.6,0.3,1.1c0,0.5,0,6.4,0,6.5c0,0.5-0.4,0.8-0.4,0.8"/>
<path class="st11" d="M15.3,183.4c0,0,0.3,0.6,0.3,1.1c0,0.5,0,6.3,0,6.5c0,0.5-0.3,0.8-0.3,0.8"/>
<line class="st12" x1="15.7" y1="183.4" x2="19.9" y2="183.4"/>
<line class="st12" x1="15.7" y1="191.8" x2="19.9" y2="191.8"/>
<path class="st2" d="M22.4,194.7c0,0,0.1-0.4,0.1-0.5c0-0.1,0.7-0.4,0.8-0.6c0.1-0.2,1.8-6.1,1.8-6.3c0-0.2-0.3-1.1-0.3-1.2
	c0-0.1,0.1-0.3,0.1-0.4c0,0-4.8-1.4-4.8-1.4c0,0.1-0.1,0.3-0.1,0.4c0,0.1-0.8,0.7-0.9,0.9c0,0.2-1.7,6-1.8,6.3
	c-0.1,0.2,0.4,0.9,0.3,1c0,0.1-0.1,0.5-0.1,0.5L22.4,194.7z"/>
<path class="st11" d="M22.4,194.7c0,0,0.1-0.4,0.1-0.5c0-0.1,0.7-0.4,0.8-0.6c0.1-0.2,1.7-6.1,1.8-6.2c0-0.2-0.3-1.1-0.3-1.2
	c0-0.1,0.1-0.3,0.1-0.4c0,0-4.8-1.4-4.8-1.4c0,0.1-0.1,0.3-0.1,0.4c0,0.1-0.8,0.7-0.9,0.9c0,0.2-1.7,6-1.8,6.2s0.4,0.9,0.3,1
	c0,0-0.1,0.5-0.1,0.5L22.4,194.7z"/>
<path class="st2" d="M20,184.8c0,0,0.1,0.7,0,1.1c-0.1,0.5-1.7,6.1-1.8,6.3c-0.1,0.5-0.6,0.7-0.6,0.7"/>
<path class="st11" d="M20,184.8c0,0,0.1,0.7,0,1.1c-0.1,0.5-1.7,6.1-1.7,6.2c-0.1,0.5-0.6,0.7-0.6,0.7"/>
<line class="st13" x1="20.5" y1="184.9" x2="24.5" y2="186.1"/>
<line class="st13" x1="18.1" y1="193" x2="22.2" y2="194.1"/>
<path class="st14" d="M19.6,26.6c4.8,0,8.8-3.9,8.8-8.8c0-4.8-3.9-8.8-8.8-8.8c-4.8,0-8.8,3.9-8.8,8.8
	C10.8,22.7,14.7,26.6,19.6,26.6"/>
<path class="st2" d="M20.5,20c0,0.1,0,0.1,0,0.2c0,0,0,0.1-0.1,0.1h-0.3c0,0-0.1,0-0.1-0.1c0,0,0-0.1,0-0.2c0.1-0.5,0.1-1.1,0-1.6
	v-0.2c0-0.1,0.1-0.2,0.1-0.2h0.3c0,0,0.1,0,0.1,0.1c0,0,0,0.1,0,0.2c0,0.5-0.1,1,0,1.6C20.5,19.9,20.5,20,20.5,20"/>
<path class="st2" d="M20.5,22.2c0,0.1,0,0.1,0,0.2c0,0,0,0.1-0.1,0.1h-0.3c0,0-0.1,0-0.1-0.1c0,0,0-0.1,0-0.2c0.1-0.5,0.1-1.1,0-1.6
	v-0.2c0-0.1,0.1-0.2,0.1-0.2h0.3c0,0,0.1,0,0.1,0.1c0,0,0,0.1,0,0.2c0,0.5-0.1,1,0,1.6C20.5,22.2,20.5,22.2,20.5,22.2"/>
<path class="st2" d="M20.5,24.5c0,0.1,0,0.1,0,0.2c0,0-0.1,0.1-0.1,0.1h-0.3c0,0-0.1,0-0.1-0.1c0,0,0-0.1,0-0.2
	c0.1-0.5,0.1-1.1,0-1.6c0-0.1,0-0.2,0-0.2c0-0.1,0.1-0.2,0.1-0.2h0.3c0,0,0.1,0,0.1,0.1c0,0,0,0.1,0,0.2c0,0.5-0.1,1,0,1.6
	C20.5,24.5,20.5,24.5,20.5,24.5"/>
<path class="st2" d="M19.8,20c0,0.1,0,0.1,0,0.2c0,0-0.1,0.1-0.1,0.1h-0.3c0,0-0.1,0-0.1-0.1c0,0,0-0.1,0-0.2c0.1-0.5,0.1-1.1,0-1.6
	v-0.2c0-0.1,0.1-0.2,0.1-0.2h0.3c0,0,0.1,0,0.1,0.1c0,0,0,0.1,0,0.2c0,0.5-0.1,1,0,1.6C19.8,19.9,19.8,20,19.8,20"/>
<path class="st2" d="M19.8,22.2c0,0.1,0,0.1,0,0.2c0,0-0.1,0.1-0.1,0.1h-0.3c0,0-0.1,0-0.1-0.1c0,0,0-0.1,0-0.2
	c0.1-0.5,0.1-1.1,0-1.6v-0.2c0-0.1,0.1-0.2,0.1-0.2h0.3c0,0,0.1,0,0.1,0.1c0,0,0,0.1,0,0.2c0,0.5-0.1,1,0,1.6
	C19.8,22.2,19.8,22.2,19.8,22.2"/>
<path class="st2" d="M19.8,24.5c0,0.1,0,0.1,0,0.2c0,0-0.1,0.1-0.1,0.1h-0.3c0,0-0.1,0-0.1-0.1c0,0,0-0.1,0-0.2
	c0.1-0.5,0.1-1.1,0-1.6c0-0.1,0-0.2,0-0.2c0-0.1,0.1-0.2,0.1-0.2h0.3c0,0,0.1,0,0.1,0.1c0,0,0,0.1,0,0.2c0,0.5-0.1,1,0,1.6
	C19.8,24.4,19.8,24.5,19.8,24.5"/>
<path class="st2" d="M19.8,17.6c0,0.1,0,0.1,0,0.2c0,0-0.1,0.1-0.1,0.1h-0.3c0,0-0.1,0-0.1-0.1c0,0,0-0.1,0-0.2
	c0.1-0.5,0.1-1.1,0-1.6c0-0.1,0-0.2,0-0.2c0-0.1,0.1-0.2,0.1-0.2h0.3c0,0,0.1,0,0.1,0.1c0,0,0,0.1,0,0.2c0,0.5-0.1,1,0,1.6
	C19.8,17.6,19.8,17.6,19.8,17.6"/>
<path class="st2" d="M19,22.3c0,0.1,0,0.1,0,0.2c0,0-0.1,0.1-0.1,0.1h-0.3c0,0-0.1,0-0.1-0.1c0,0,0-0.1,0-0.2c0.1-0.5,0.1-1.1,0-1.6
	c0-0.1,0-0.2,0-0.2c0-0.1,0.1-0.2,0.1-0.2h0.3c0,0,0.1,0,0.1,0.1c0,0,0,0.1,0,0.2c0,0.5-0.1,1,0,1.6C19,22.2,19,22.3,19,22.3"/>
<path class="st2" d="M19,24.6c0,0.1,0,0.1,0,0.2c0,0-0.1,0.1-0.1,0.1h-0.3c0,0-0.1,0-0.1-0.1c0,0,0-0.1,0-0.2c0.1-0.5,0.1-1.1,0-1.6
	v-0.2c0-0.1,0.1-0.2,0.1-0.2h0.3c0,0,0.1,0,0.1,0.1c0,0,0,0.1,0,0.2c0,0.5-0.1,1,0,1.6C19,24.5,19,24.6,19,24.6"/>
<path class="st2" d="M19.5,20.5C19.5,20.5,19.4,20.5,19.5,20.5c-0.1-0.1-0.2-0.2-0.3-0.3c-0.1-0.1-0.2-0.2-0.3-0.3
	c-0.1-0.1-0.2-0.2-0.4-0.3c-0.1-0.1-0.3-0.3-0.4-0.4c-0.1-0.1-0.3-0.3-0.4-0.5c-0.3-0.3-0.6-0.7-0.8-1.1c0,0,0.1,0.1,0.3,0.2
	c0.2,0.1,0.4,0.3,0.7,0.5c0.1,0.1,0.3,0.3,0.5,0.4c0.2,0.2,0.3,0.3,0.5,0.5c0.1,0.1,0.2,0.2,0.2,0.3c0.1,0.1,0.1,0.2,0.2,0.3
	c0.1,0.1,0.1,0.2,0.2,0.3C19.4,20.3,19.5,20.4,19.5,20.5"/>
<path class="st2" d="M20.3,10.5c0,0,0,0.1,0,0.2c0,0.1,0,0.1,0,0.2c0,0,0,0.1,0,0.1c0,0,0,0,0,0.1v0.1c0,0.1,0,0.2,0,0.3
	c0,0.1,0,0.1,0,0.2c0,0.1,0,0.1,0,0.2c0,0.1,0,0.3,0,0.4c0,0.1,0,0.3,0,0.5c-0.1,0.6-0.2,1.3-0.3,2c0,0.1,0,0.2-0.1,0.3
	c0,0,0,0.1,0,0.1c0,0,0,0.1,0,0.1c0,0.2-0.1,0.3-0.1,0.5c0,0.2-0.1,0.3-0.2,0.5c0,0.1-0.1,0.2-0.1,0.2c0,0.1-0.1,0.1-0.1,0.2
	c0,0,0,0,0,0c0,0,0-0.1,0-0.1c0-0.1,0-0.2,0-0.3c0-0.1,0-0.3,0-0.5c0-0.2,0-0.5,0.1-0.7c0,0,0-0.1,0-0.1c0,0,0-0.1,0-0.1
	c0-0.1,0-0.1,0-0.2c0-0.2,0-0.3,0.1-0.5c0-0.3,0.1-0.7,0.2-1c0-0.1,0-0.2,0-0.3c0-0.1,0-0.2,0.1-0.3c0-0.2,0.1-0.4,0.1-0.6
	c0-0.1,0-0.2,0.1-0.3c0-0.1,0-0.2,0.1-0.3c0-0.1,0-0.1,0-0.2c0-0.1,0-0.1,0-0.2C20.3,10.7,20.3,10.6,20.3,10.5"/>
<path class="st2" d="M19,14C19,14,19,14,19,14C19,14,19,14,19,14C19,14,19,14,19,14c0.1,0,0.1,0,0.1,0c0,0,0,0,0,0c0,0,0,0,0,0
	c0.1,0,0.1,0.1,0.2,0.2c0.1,0.1,0.1,0.2,0.2,0.4s0.1,0.3,0.1,0.5c0,0.2,0,0.4,0,0.6c0,0.4-0.1,0.8-0.2,1.1c0,0,0,0,0-0.1
	c0,0,0-0.1,0-0.2c0-0.1-0.1-0.3-0.1-0.6c0-0.1,0-0.3,0-0.4c0-0.1,0-0.1,0-0.2c0,0,0-0.1,0-0.1c0,0,0-0.1,0-0.1c0-0.1,0-0.2,0-0.2
	c0-0.1,0-0.2,0-0.3c0-0.1,0-0.2,0-0.3C19,14.2,19,14.1,19,14"/>
<path class="st2" d="M15.1,15.5c1.8,0.8,4.2,3,4.2,3C18.5,15.8,15.1,15.5,15.1,15.5"/>
<path class="st2" d="M14.4,18.3c0,0,4.6-1.4,4.5,6.2C18.9,24.5,18.8,18.8,14.4,18.3"/>
<path class="st2" d="M15,14.8c0,0,4.6-1.4,4.5,6.2C19.5,21,19.4,15.3,15,14.8"/>
<path class="st2" d="M24.6,14.4c-1.8,0.8-4.2,3-4.2,3C21.3,14.7,24.6,14.4,24.6,14.4"/>
<path class="st2" d="M24.8,13.7c0,0-4.6-1.4-4.5,6.2C20.3,19.9,20.4,14.2,24.8,13.7"/>
<path class="st2" d="M20.5,15.2C20.5,15.2,20.5,15.2,20.5,15.2c0,0.1,0,0.2,0,0.2c0,0,0,0,0,0.1c0,0,0,0,0,0c0,0,0,0,0,0
	c0,0.1,0,0.1,0,0.2c0,0,0,0.1,0,0.1c0,0,0,0.1,0,0.1c0,0.1,0,0.2,0,0.2c0,0.1,0,0.2,0,0.3c0,0.4-0.1,0.8-0.1,1.2c0,0.1,0,0.1,0,0.2
	c0,0,0,0,0,0.1c0,0,0,0,0,0.1c0,0.1-0.1,0.2-0.1,0.3c0,0.1-0.1,0.2-0.1,0.3c0,0,0,0.1-0.1,0.1c0,0-0.1,0.1-0.1,0.1c0,0,0,0,0,0
	c0,0,0,0,0-0.1c0,0,0-0.1,0-0.2c0-0.1,0-0.2,0-0.3c0-0.1,0-0.3,0-0.4c0,0,0,0,0-0.1c0,0,0,0,0-0.1c0,0,0-0.1,0-0.1
	c0-0.1,0-0.2,0-0.3c0-0.2,0.1-0.4,0.1-0.6c0-0.1,0-0.1,0-0.2c0-0.1,0-0.1,0-0.2c0-0.1,0-0.2,0.1-0.3c0-0.1,0-0.1,0-0.2
	c0-0.1,0-0.1,0-0.2c0,0,0-0.1,0-0.1c0,0,0-0.1,0-0.1C20.4,15.3,20.5,15.2,20.5,15.2"/>
<path class="st2" d="M18.5,18.1C18.5,18.1,18.5,18.1,18.5,18.1c0.1,0.1,0.1,0.1,0.1,0.2c0,0,0,0,0,0.1c0,0,0,0,0,0c0,0,0,0,0,0
	c0,0.1,0,0.1,0.1,0.2c0,0,0,0.1,0,0.1c0,0,0,0.1,0,0.1c0,0.1,0,0.2,0.1,0.2c0,0.1,0,0.2,0.1,0.3c0.1,0.4,0.2,0.8,0.2,1.2
	c0,0.1,0,0.1,0,0.2c0,0,0,0,0,0.1c0,0,0,0,0,0.1c0,0.1,0,0.2,0,0.3c0,0.1,0,0.2,0,0.3c0,0,0,0.1,0,0.1c0,0,0,0.1-0.1,0.1
	c0,0,0,0,0,0c0,0,0,0,0,0c0,0,0-0.1-0.1-0.2c0-0.1-0.1-0.2-0.1-0.3c0-0.1-0.1-0.3-0.1-0.4c0,0,0,0,0-0.1c0,0,0,0,0-0.1
	c0,0,0-0.1,0-0.1c0-0.1,0-0.2,0-0.3c0-0.2-0.1-0.4-0.1-0.6c0-0.1,0-0.1,0-0.2c0-0.1,0-0.1,0-0.2c0-0.1,0-0.2,0-0.3
	c0-0.1,0-0.1,0-0.2c0-0.1,0-0.1,0-0.2c0,0,0-0.1,0-0.1c0,0,0-0.1,0-0.1C18.5,18.2,18.5,18.2,18.5,18.1"/>
<path class="st2" d="M24.8,17.6c0,0-4.6-1.4-4.5,6.2C20.3,23.8,20.4,18.1,24.8,17.6"/>
<path class="st15" d="M19.6,134.1c4.8,0,8.8-3.9,8.8-8.8c0-4.8-3.9-8.8-8.8-8.8c-4.8,0-8.8,3.9-8.8,8.8
	C10.8,130.1,14.7,134.1,19.6,134.1"/>
<path class="st2" d="M17.7,127.9c-0.6,0-1.1-0.6-1.1-1.3c0-0.7,0.5-1.3,1.1-1.3c0.6,0,1.1,0.6,1.1,1.3
	C18.8,127.3,18.3,127.9,17.7,127.9 M18.3,124.2c0.2,0,0.4,0.2,0.4,0.5c0,0.3-0.2,0.5-0.4,0.5s-0.4-0.2-0.4-0.5
	C17.9,124.4,18.1,124.2,18.3,124.2 M19.6,120.1c-1,2.3-3.5,4.9-3.5,6.9c0,2,1.6,3.6,3.5,3.6c1.9,0,3.5-1.6,3.5-3.6
	C23.1,124.9,20.5,122.4,19.6,120.1"/>
<path class="st16" d="M19.6,351.1c4.8,0,8.8-3.9,8.8-8.8c0-4.8-3.9-8.8-8.8-8.8s-8.8,3.9-8.8,8.8C10.8,347.2,14.7,351.1,19.6,351.1"
	/>
<path class="st2" d="M22.3,340.6h1v-0.7h-1V340.6z M20.7,340.6h1v-0.7h-1V340.6z M19,340.6h1v-0.7h-1V340.6z M15.7,340.6h1v-0.7h-1
	V340.6z M17.4,340.6h1v-0.7h-1V340.6z M13.2,345l0.2,0.4c1.3-0.3,2.4,0.8,3.9,1.5c1.1,0.5,2.3,0.8,4.1,0.2c1.8-0.6,2.3-2.1,4.4-1.6
	l0.1-0.4c-0.5-0.1-1-0.2-1.4-0.2c-0.9,0-1.9,0.2-2.9,0.6c-1.4,0.6-2.9,0.5-4.3,0v0c-0.8-0.3-1.6-0.6-2.5-0.6
	C14.2,344.8,13.7,344.8,13.2,345 M13.6,341h1.6v-1.2c0-0.4,0.3-0.7,0.7-0.7h3.3v-1.6h2.7v1.6h1.5c0.4,0,0.7,0.3,0.7,0.7v1.2h2
	l-1,2.9c-0.2,0-0.4,0-0.5,0c-1.1,0-2.2,0.2-3.2,0.7l0,0c-0.6,0.2-1.1,0.4-1.8,0.4c-0.6,0-1.3-0.1-1.9-0.4l-0.1,0
	c-0.9-0.4-1.8-0.6-2.7-0.7c-0.3,0-0.5,0-0.8,0L13.6,341z"/>
<path class="st14" d="M19.6,323.5c4.8,0,8.8-3.9,8.8-8.8c0-4.8-3.9-8.8-8.8-8.8s-8.8,3.9-8.8,8.8C10.8,319.6,14.7,323.5,19.6,323.5"
	/>
<path class="st2" d="M22.3,313h1v-0.7h-1V313z M20.7,313h1v-0.7h-1V313z M19,313h1v-0.7h-1V313z M15.7,313h1v-0.7h-1V313z M17.4,313
	h1v-0.7h-1V313z M13.2,317.3l0.2,0.4c1.3-0.3,2.4,0.8,3.9,1.5c1.1,0.5,2.3,0.8,4.1,0.2c1.8-0.6,2.3-2.1,4.4-1.6l0.1-0.4
	c-0.5-0.1-1-0.2-1.4-0.2c-0.9,0-1.9,0.2-2.9,0.6c-1.4,0.6-2.9,0.6-4.3,0v0c-0.8-0.3-1.6-0.6-2.5-0.6
	C14.2,317.1,13.7,317.2,13.2,317.3 M13.6,313.4h1.6v-1.2c0-0.4,0.3-0.7,0.7-0.7h3.3v-1.6h2.7v1.6h1.5c0.4,0,0.7,0.3,0.7,0.7v1.2h2
	l-1,2.9c-0.2,0-0.4,0-0.5,0c-1.1,0-2.2,0.2-3.2,0.7l0,0c-0.6,0.2-1.1,0.4-1.8,0.4c-0.6,0-1.3-0.1-1.9-0.4l-0.1,0
	c-0.9-0.4-1.8-0.6-2.7-0.7c-0.3,0-0.5,0-0.8,0L13.6,313.4z"/>
</svg>
